VE0110_0191A	vir_191a
VE0110_0191B	vir_191b
VE0111_0192	vir_0192
VE0112_0450	vir_0450
VE0113_0687	vir_0687
VE0114_0688	vir_0688
VE0115_0689	vir_0689
VE0116_0690	vir_0690
VE0117_0692	vir_0692
VE0118_0693	vir_0693
VE0119_0694	vir_0694
VE0120_0695	vir_0695
VE0121_0726	vir_0726
VE0122_0727	vir_0727
VE0123_0728	vir_0728
VE0124_0729	vir_0729
VE0125_0730	vir_0730
VE0126_0731	vir_0731
VE0127_0732	vir_0732
VE0128_0733	vir_0733
VE0129_0734	vir_0734
VE0130_0740	vir_0740
VE0131_0744	vir_0744
VE0132_0745	vir_0745
VE0133_0746	vir_0746
VE0134_0747	vir_0747
VE0135_0748	vir_0748
VE0136_0749	vir_0749
VE0137_0754	vir_0754
VE0139_0756	vir_0756
VE0140_0757	vir_0757
VE0141_0758	vir_0758
VE0142_0760	vir_0760
VE0143_0761	vir_0761
VE0144_0762	vir_0762
VE0145_0763	vir_0763
VE0146_0764	vir_0764
VE0147_0766	vir_0766
VE0148_0767	vir_0767
VE0149_0768	vir_0768
VE0150_0769	vir_0769
VE0151_0771	vir_0771
VE0152_0772	vir_0772
VE0153_0890	vir_0890
VE0154_1029	vir_1029
VE0155_1210	vir_1210
VE0156_1211	vir_1211
VE0157_1404	vir_1404
VE0158_1405	vir_1405
VE0159_1406	vir_1406
VE0161_1411	vir_1411
VE0162_1412	vir_1412
VE0163_1413	vir_1413
VE0164_1417	vir_1417
VE0165_1423	vir_1423
VE0167_1583	vir_1583
VE0168_1584	vir_1584
VE0169_1586	vir_1586
VE0170_2178	vir_2178
VE0172_3036	vir_3036
VE0173_3461	vir_3461
VE0174_3587	vir_3587
VE1411_0002	vir_002a
VE1413_0002	vir_002b
VIR0002	vir_002c
VIR0003	vir_0003
VIR0004	vir_0004
VIR0005	vir_0005
VIR0021	vir_0021
VIR0023	vir_0023
VIR0024	vir_0024
VIR0025	vir_0025
VIR0026	vir_0026
VIR0027	vir_0027
VIR0028	vir_0028
VIR0030	vir_0030
VIR0031	vir_0031
VIR0033	vir_0033
VIR0034	vir_0034
VIR0036	vir_0036
VIR0037	vir_0037
VIR0038	vir_0038
VIR0039	vir_0039
VIR0040	vir_0040
VIR0041	vir_0041
VIR0042	vir_0042
VIR0043	vir_0043
VIR0111	vir_0111
VIR0125	vir_0125
VIR0143	vir_0143
VIR0167	vir_0167
VIR0172	vir_0172
VIR0187	vir_0187
VIR0189	vir_0189
VIR0196	vir_0196
VIR0199	vir_0199
VIR0201	vir_0201
VIR0202	vir_0202
VIR0203	vir_0203
VIR0204	vir_0204
VIR0205	vir_0205
VIR0206	vir_0206
VIR0207	vir_0207
VIR0208	vir_0208
VIR0209	vir_0209
VIR0210	vir_0210
VIR0212	vir_0212
VIR0215	vir_0215
VIR0216	vir_0216
VIR0217	vir_0217
VIR0218	vir_0218
VIR0220	vir_0220
VIR0221	vir_0221
VIR0222	vir_0222
VIR0224	vir_0224
VIR0225	vir_0225
VIR0226	vir_0226
VIR0227	vir_0227
VIR0229	vir_0229
VIR0230	vir_0230
VIR0231	vir_0231
VIR0232	vir_0232
VIR0233	vir_0233
VIR0234	vir_0234
VIR0235	vir_0235
VIR0236	vir_0236
VIR0237	vir_0237
VIR0238	vir_0238
VIR0239	vir_0239
VIR0240	vir_0240
VIR0241	vir_0241
VIR0242	vir_0242
VIR0243	vir_0243
VIR0244	vir_0244
VIR0245	vir_0245
VIR0246	vir_0246
VIR0249	vir_0249
VIR0250	vir_0250
VIR0251	vir_0251
VIR0252	vir_0252
VIR0253	vir_0253
VIR0254	vir_0254
VIR0256	vir_0256
VIR0257	vir_0257
VIR0299	vir_0299
VIR0300	vir_0300
VIR0301	vir_0301
VIR0302	vir_0302
VIR0303	vir_0303
VIR0306	vir_0306
VIR0308	vir_0308
VIR0312	vir_0312
VIR0313	vir_0313
VIR0314	vir_0314
VIR0315	vir_0315
VIR0325	vir_0325
VIR0328	vir_0328
VIR0336	vir_0336
VIR0340	vir_0340
VIR0345	vir_0345
VIR0359	vir_0359
VIR0360	vir_0360
VIR0363	vir_0363
VIR0370	vir_0370
VIR0371	vir_0371
VIR0372	vir_0372
VIR0373	vir_0373
VIR0374	vir_0374
VIR0375	vir_0375
VIR0376	vir_0376
VIR0377	vir_0377
VIR0378	vir_0378
VIR0380	vir_0380
VIR0381	vir_0381
VIR0382	vir_0382
VIR0383	vir_0383
VIR0400	vir_0400
VIR0407	vir_0407
VIR0408	vir_0408
VIR0409	vir_0409
VIR0412	vir_0412
VIR0413	vir_0413
VIR0414	vir_0414
VIR0453	vir_0453
VIR0454	vir_0454
VIR0457	vir_0457
VIR0460	vir_0460
VIR0464	vir_0464
VIR0467	vir_0467
VIR0469	vir_0469
VIR0471	vir_0471
VIR0472	vir_0472
VIR0473	vir_0473
VIR0474	vir_0474
VIR0482	vir_0482
VIR0483	vir_0483
VIR0533	vir_0533
VIR0535	vir_0535
VIR0539	vir_0539
VIR0540	vir_0540
VIR0542	vir_0542
VIR0543	vir_0543
VIR0545	vir_0545
VIR0584	vir_0584
VIR0586	vir_0586
VIR0587	vir_0587
VIR0588	vir_0588
VIR0589	vir_0589
VIR0597	vir_0597
VIR0601	vir_0601
VIR0605	vir_0605
VIR0620	vir_0620
VIR0623	vir_0623
VIR0626	vir_0626
VIR0627	vir_0627
VIR0628	vir_0628
VIR0631	vir_0631
VIR0632	vir_0632
VIR0633	vir_0633
VIR0634	vir_0634
VIR0635	vir_0635
VIR0638	vir_0638
VIR0641	vir_0641
VIR0642	vir_0642
VIR0643	vir_0643
VIR0644	vir_0644
VIR0647	vir_0647
VIR0667	vir_0667
VIR0668	vir_0668
VIR0669	vir_0669
VIR0670	vir_0670
VIR0676	vir_0676
VIR0691	vir_0691
VIR0704	vir_0704
VIR0735	vir_0735
VIR0736	vir_0736
VIR0737	vir_0737
VIR0738	vir_0738
VIR0742	vir_0742
VIR0765	vir_0765
VIR0773	vir_0773
VIR0774	vir_0774
VIR0776	vir_0776
VIR0787	vir_0787
VIR0790	vir_0790
VIR0794	vir_0794
VIR0795	vir_0795
VIR0796	vir_0796
VIR0797	vir_0797
VIR0798	vir_0798
VIR0799	vir_0799
VIR0801	vir_0801
VIR0802	vir_0802
VIR0804	vir_0804
VIR0807	vir_0807
VIR0810	vir_0810
VIR0813	vir_0813
VIR0815	vir_0815
VIR0816	vir_0816
VIR0833	vir_0833
VIR0850	vir_0850
VIR0851	vir_0851
VIR0853	vir_0853
VIR0855	vir_0855
VIR0860	vir_0860
VIR0862	vir_0862
VIR0876	vir_0876
VIR0880	vir_0880
VIR0881	vir_0881
VIR0884	vir_0884
VIR0885	vir_0885
VIR0900	vir_0900
VIR0905	vir_0905
VIR0906	vir_0906
VIR0914	vir_0914
VIR0915	vir_0915
VIR0917	vir_0917
VIR0918	vir_0918
VIR0919	vir_0919
VIR0920	vir_0920
VIR0923	vir_0923
VIR0929	vir_0929
VIR0930	vir_0930
VIR0931	vir_0931
VIR0932	vir_0932
VIR0933	vir_0933
VIR0934	vir_0934
VIR0935	vir_0935
VIR0936	vir_0936
VIR0940	vir_0940
VIR0941	vir_0941
VIR0943	vir_0943
VIR0944	vir_0944
VIR0945	vir_0945
VIR0947	vir_0947
VIR0948	vir_0948
VIR0957	vir_0957
VIR0958	vir_0958
VIR0960	vir_0960
VIR0961	vir_0961
VIR0962	vir_0962
VIR0963	vir_0963
VIR0965	vir_0965
VIR0967	vir_0967
VIR0973	vir_0973
VIR0983	vir_0983
VIR0984	vir_0984
VIR0985	vir_0985
VIR0990	vir_0990
VIR0991	vir_0991
VIR0992	vir_0992
VIR0994	vir_0994
VIR0999	vir_0999
VIR1001	vir_1001
VIR1002	vir_1002
VIR1003	vir_1003
VIR1005	vir_1005
VIR1007	vir_1007
VIR1008	vir_1008
VIR1009	vir_1009
VIR1010	vir_1010
VIR1011	vir_1011
VIR1012	vir_1012
VIR1013	vir_1013
VIR1014	vir_1014
VIR1016	vir_1016
VIR1019	vir_1019
VIR1032	vir_1032
VIR1033	vir_1033
VIR1039	vir_1039
VIR1068	vir_1068
VIR1120	vir_1120
VIR1171	vir_1171
VIR1179	vir_1179
VIR1190	vir_1190
VIR1214	vir_1214
VIR1230	vir_1230
VIR1243	vir_1243
VIR1252	vir_1252
VIR1286	vir_1286
VIR1481	vir_1481
VIR2296	vir_2296
VIR455a	vir_455a
VIR455b	vir_455b
VT0003_0344	vir_0344
VT0005_0347	vir_0347
VT0006_0348	vir_0348
VT0007_349a	vir_349a
VT0008_349b	vir_349b
VT0007_0349	vir_349a
VT0008_0349	vir_349b
VT0009_0350	vir_0350
VT0010_0351	vir_0351
VT0011_0352	vir_0352
VT0012_0353	vir_0353
VT0013_0354	vir_0354
VT0014_0355	vir_0355
VT0015_0356	vir_0356
VT0018_0361	vir_0361
VT0019_0362	vir_0362
VT0020_0364	vir_0364
VT0021_0365	vir_0365
VT0022_0590	vir_0590
VT0025_0593	vir_0593
VT0027_0596	vir_0596
VT0028_0599	vir_0599
VT0029_0600	vir_0600
VT0031_0603	vir_0603
VT0033_0606	vir_0606
VT0035_0608	vir_0608
VT0037_0610	vir_0610
VT0038_0611	vir_0611
VT0039_0793	vir_0793
VT0040_0856	vir_0856
VT0041_0857	vir_0857
VT0042_0858	vir_0858
VT0044_0863	vir_0863
VT0045_0865	vir_0865
VT0046_0866	vir_0866
VT0047_0868	vir_0868
VT0048_0871	vir_0871
VT0049_0872	vir_0872
VT0050_0874	vir_0874
VT0051_0882	vir_0882
VT0052_0883	vir_0883
VT0053_0896	vir_0896
VT0054_0897	vir_0897
VT0055_1558	vir_1558
VT0056_2340	vir_2340
VT0057_2341	vir_2341
VT0058_2374	vir_2374
VT0059_2394	vir_2394
VT0060_2399	vir_2399
VT0061_2412	vir_2412
VT0062_2413	vir_2413
VT0063_2438	vir_2438
VT0065_2493	vir_2493
VT0066_3055	vir_3055
VT0068_3083	vir_3083
VT0071_3200	vir_3200
VT0072_3264	vir_3264
VT0073_3271	vir_3271
VT0075_3273	vir_3273
VT0076_3274	vir_3274
VT0077_3275	vir_3275
VT0078_3293	vir_3293
VT0080_3297	vir_3297
VT0081_3298	vir_3298
VT0083_3428	vir_3428
VT0084_3438	vir_3438
VT0085_3439	vir_3439
VT0087_3442	vir_3442
VT0088_3462	vir_3462
VT0089_3473	vir_3473
VT0091_3516	vir_3516
VT0092_3517	vir_3517
VT0094_3519	vir_3519
VT0096_3521	vir_3521
VT0098_3529	vir_3529
VT0099_3530	vir_3530
VT0100_3563	vir_3563
VT0101_3570	vir_3570
VT0102_3571	vir_3571
VT0103_3572	vir_3572
VT0104_3593	vir_3593
VT0105_3594	vir_3594
VT0106_3595	vir_3595
VT0107_3596	vir_3596
VT0108_3597	vir_3597
VT0109_3598	vir_3598