snp,adj_pc
Ca2:32110068,0.00133084386482225
Ca3:31344462,0.00133084386482225
Ca1:38562136,0.0016312745951806
Ca1:38562173,0.00179072671912342
Ca1:38562281,0.00179072671912342
Ca1:32283939,0.00265863537423718
Ca1:38335192,0.00498905157557499
Ca1:39814892,0.00590023731997181
Ca4:13593426,0.00590023731997181
Ca4:22760269,0.00590023731997181
Ca1:38296366,0.00610722358018365
Ca1:38296393,0.006280810755245179
Ca1:35073977,0.0063384137685121794
Ca1:40080101,0.0063384137685121794
Ca2:32039805,0.0063384137685121794
scaffold4777:25723,0.0063384137685121794
Ca1:35356038,0.00699919058191867
Ca1:38884526,0.007951939393419141
Ca2:29164269,0.00889720060647657
Ca2:35901182,0.00889720060647657
Ca1:40080075,0.00926863897541431
Ca2:35901139,0.00926863897541431
Ca4:10904097,0.00926863897541431
Ca1:39739919,0.0115004695218876
Ca1:40016521,0.011511627257942
Ca4:13818280,0.0116970798392482
Ca1:38351224,0.0117886509391011
Ca4:14059870,0.0117886509391011
Ca4:10931701,0.0121120479365775
Ca5:28469224,0.0121120479365775
Ca4:13749710,0.0122549375340621
Ca4:11055026,0.0124720889648669
Ca4:11055030,0.0124720889648669
Ca1:39446396,0.0124768745554916
Ca1:39950057,0.0124768745554916
Ca1:34743188,0.0135698876221565
Ca1:31355583,0.0195555758805507
Ca1:37869964,0.0195555758805507
Ca3:28269832,0.0195555758805507
Ca4:13593553,0.0200946009570253
Ca4:13769052,0.0200946009570253
Ca1:39512033,0.0214358747077277
Ca4:11121454,0.0214358747077277
Ca1:39585420,0.0220504263566989
Ca1:40156933,0.0220504263566989
Ca4:10904128,0.0220504263566989
Ca4:13637982,0.0220504263566989
Ca4:14057570,0.0220504263566989
Ca7:32482435,0.0220504263566989
Ca1:34865652,0.0222390533888383
Ca1:35311476,0.0222390533888383
Ca1:35311482,0.0222390533888383
Ca2:32155965,0.0222390533888383
Ca3:29679459,0.0222390533888383
Ca4:11091578,0.0222390533888383
Ca4:11166033,0.0222390533888383
Ca4:14023652,0.0222390533888383
Ca4:14059637,0.0222390533888383
Ca6:53592514,0.0222390533888383
Ca1:35182846,0.0238761155320121
Ca1:31369599,0.0249826163554569
Ca1:32266870,0.0252121734318596
Ca1:30186094,0.0257041484721085
Ca1:38549041,0.0257041484721085
Ca4:13749741,0.0257041484721085
Ca1:33135601,0.0262571720117615
Ca8:6273309,0.0278268026712277
Ca4:11121421,0.0289869030439053
Ca4:13821063,0.0297541872969664
Ca4:32639808,0.0297541872969664
Ca7:32678008,0.0304934119543146
Ca2:32291565,0.0317751948714809
Ca1:1033034,0.0335440034513638
Ca1:38295617,0.0348595409486939
Ca1:38295618,0.0348595409486939
Ca4:14088932,0.0348595409486939
Ca7:30930779,0.0348595409486939
Ca1:34395064,0.03486057988540701
Ca3:35390128,0.0392063878106572
Ca1:39438554,0.047294079364113
Ca4:12596770,0.0474976771422539
Ca4:12596793,0.0474976771422539
Ca4:11065182,0.0480806386281047
Ca1:34713825,0.0506146821617436
Ca7:33114950,0.0508296621173867
scaffold509:108007,0.0510311139815963
Ca2:17161867,0.053141561404514
Ca8:10314452,0.053141561404514
Ca1:31224986,0.0556125018018144
Ca1:34754575,0.0583080191537176
Ca2:32154998,0.0645681088712722
Ca7:33228898,0.0682103764772263
Ca1:970249,0.0702629676991812
Ca1:35182917,0.0704638148802278
Ca1:35182918,0.0704638148802278
Ca1:35182925,0.0704638148802278
Ca7:32749345,0.0704858461188546
Ca4:23972507,0.0706755629392078
Ca2:17161884,0.0707429295451762
Ca7:32749374,0.0707429295451762
scaffold398:440221,0.0707429295451762
Ca1:6482592,0.0715280250806418
Ca1:2152476,0.0729938470025083
Ca1:420648,0.07492343128642401
Ca4:10873308,0.0761743456330899
Ca4:10873315,0.0761743456330899
Ca4:13717261,0.0761743456330899
Ca2:33652746,0.08212623327863901
Ca4:14094079,0.08212623327863901
Ca4:19789345,0.08212623327863901
Ca4:19789350,0.08212623327863901
Ca4:11698719,0.0831017877186323
Ca1:31410030,0.09247682542302302
Ca2:32158163,0.09491649533972801
Ca2:32158200,0.09491649533972801
Ca4:37224090,0.0958187798124013
Ca8:16436108,0.0973194130796764
Ca1:32174446,0.0993151623622311
Ca1:32174469,0.10225547444914698
Ca1:414572,0.103989594126298
scaffold50:317786,0.103989594126298
Ca4:14094039,0.107179552941831
Ca3:30293591,0.10730672175134899
Ca1:442737,0.10946344941889999
Ca1:468077,0.11618664042182698
Ca4:37341170,0.123121612176874
Ca4:37772821,0.123121612176874
Ca2:32142844,0.136145732787359
Ca1:38922535,0.14092356877145099
Ca5:28864225,0.14169555285499
Ca1:1123223,0.14605316941229302
Ca1:317478,0.14605316941229302
Ca1:35302634,0.15354830762451
Ca1:2809226,0.15355060270742302
Ca3:14074164,0.15355060270742302
Ca5:28864291,0.15355060270742302
Ca1:35152714,0.155971789146931
Ca1:38133629,0.164055731926426
Ca1:5480709,0.164055731926426
Ca3:14083051,0.164055731926426
Ca3:27877479,0.164055731926426
Ca1:6277549,0.169412320249216
Ca3:31566933,0.169412320249216
Ca3:31566949,0.169412320249216
Ca4:2145082,0.169412320249216
scaffold36:21612,0.169412320249216
Ca4:12484911,0.171996267400675
Ca5:28720454,0.171996267400675
Ca5:28720484,0.171996267400675
Ca1:39586706,0.17235718912060802
Ca4:28282208,0.17235718912060802
Ca3:18404625,0.183220566034601
Ca4:12690077,0.183220566034601
Ca1:6277507,0.18409335584605604
Ca5:28864293,0.18597979384666896
scaffold887_1:118071,0.18906863110242603
Ca7:36747540,0.19225398779959998
Ca4:12499471,0.19684730253653898
Ca1:1023011,0.199739189697622
Ca4:11415266,0.199739189697622
Ca4:4544474,0.20022165899972896
Ca4:37420096,0.20113168050770303
Ca3:29997145,0.218275235491124
scaffold678:60998,0.218275235491124
Ca3:31488241,0.223850980312776
Ca2:33655059,0.23298508741592602
Ca6:14845790,0.23840156222749398
Ca1:6483911,0.240034704429541
Ca2:31810778,0.240034704429541
Ca2:31810803,0.240034704429541
Ca8:14821416,0.240034704429541
Ca4:37300412,0.24042403860601197
Ca3:14017071,0.246830170093119
Ca1:35148190,0.24717821063968104
Ca8:16219588,0.24906157960856798
Ca3:33614480,0.25051826325604
Ca2:35983700,0.252484348844864
Ca4:14112123,0.252513620687546
Ca4:22907639,0.260187184264448
Ca3:14042580,0.26060584982740304
Ca3:31370305,0.26087498022699396
Ca3:31423265,0.26087498022699396
Ca4:32172903,0.26087498022699396
Ca4:37341226,0.26087498022699396
Ca4:47224713,0.26087498022699396
Ca5:37673293,0.26087498022699396
scaffold2051:17274,0.26087498022699396
Ca4:40147289,0.261674222670498
Ca1:6383036,0.269723936102757
Ca2:23301786,0.271480555633077
Ca3:38027888,0.271480555633077
scaffold157:243978,0.271480555633077
scaffold157:243982,0.271480555633077
Ca1:2598554,0.272817544724131
Ca1:2869033,0.272817544724131
Ca4:30151416,0.272817544724131
Ca4:37351109,0.272817544724131
Ca1:6483872,0.274576531040953
Ca4:37685842,0.27855831219346
Ca1:38310073,0.28394212737431795
Ca4:13685998,0.284869052837745
Ca3:23485450,0.291858363559635
Ca6:41979952,0.30615437088242403
Ca3:14174865,0.30816885309495196
Ca3:14174872,0.30816885309495196
Ca5:28363041,0.30816885309495196
Ca5:28432998,0.30816885309495196
Ca4:32400377,0.318050739051275
Ca3:31532701,0.318493229201578
Ca4:4469962,0.318493229201578
Ca7:7176979,0.318493229201578
Ca4:8165224,0.321267108945835
Ca4:28145141,0.32217684615090103
Ca4:32183527,0.324109363068722
Ca4:32183528,0.324109363068722
Ca4:35590672,0.32507630058931497
Ca3:36799988,0.328327581577682
Ca3:14174828,0.330061396636284
Ca3:33876202,0.330061396636284
Ca1:35502868,0.337355453727796
Ca2:30553736,0.33983688612541696
Ca4:22984274,0.34455173115308396
Ca5:28382160,0.34566568851625606
Ca4:36718633,0.347055855489272
scaffold2763:131565,0.35054635174530396
Ca4:31027784,0.350598232189706
Ca1:2374520,0.351048970788988
scaffold1511:7841,0.35174269079569
scaffold1722:162803,0.35174269079569
Ca4:44925887,0.355347313549028
Ca4:32827742,0.36295917514000803
Ca4:4495129,0.363693973906485
Ca4:12576388,0.366425468490034
Ca4:37849810,0.366662278584432
Ca4:40158139,0.36699267673349106
Ca2:28739667,0.36778810849547205
Ca4:32252298,0.36778810849547205
Ca4:4474241,0.36778810849547205
Ca4:17683170,0.3726658166869
Ca1:44496092,0.37568779587347706
Ca4:28939079,0.37749671652103706
Ca2:36523088,0.378393011565303
scaffold2763:131583,0.378393011565303
Ca6:35046173,0.38609100126533
Ca6:3149303,0.388509211349825
scaffold1439:220499,0.388509211349825
Ca4:32551521,0.38942948661158794
scaffold340:98141,0.38942948661158794
scaffold171:54661,0.38993333631295
Ca4:12559654,0.39148737081402296
Ca1:5511996,0.39636964519302503
Ca4:17481178,0.39698406974920797
Ca1:18897998,0.398912879088958
Ca1:37888979,0.398912879088958
Ca1:6554623,0.398912879088958
Ca2:30860449,0.398912879088958
Ca2:32060134,0.398912879088958
Ca3:2216198,0.398912879088958
Ca3:31469668,0.398912879088958
Ca3:31610758,0.398912879088958
Ca4:16507090,0.398912879088958
Ca4:27664476,0.398912879088958
Ca4:30466619,0.398912879088958
Ca4:31321459,0.398912879088958
Ca4:32551489,0.398912879088958
Ca5:28831576,0.398912879088958
Ca5:44822119,0.398912879088958
Ca8:14775912,0.398912879088958
Ca2:3142749,0.399536170994029
Ca3:30041913,0.399536170994029
Ca3:31355528,0.399536170994029
Ca1:23748141,0.400300160455971
Ca4:11635766,0.400300160455971
Ca4:11635776,0.400300160455971
Ca2:11431990,0.403412313604725
Ca8:14722204,0.403412313604725
Ca1:2270600,0.406001311020175
Ca1:2398988,0.406001311020175
Ca2:32517154,0.406001311020175
Ca3:19353482,0.406001311020175
Ca4:17854262,0.406001311020175
Ca4:37618142,0.406001311020175
Ca6:38701971,0.406001311020175
Ca8:16378714,0.406001311020175
scaffold2166:165067,0.406001311020175
Ca1:2360375,0.408134014751171
Ca2:33496146,0.40875556638075394
Ca3:29872796,0.40875556638075394
Ca3:30041977,0.40875556638075394
Ca4:23033223,0.40875556638075394
Ca4:26014099,0.40875556638075394
Ca4:26014102,0.40875556638075394
Ca4:30010744,0.40875556638075394
Ca5:44822116,0.40875556638075394
Ca3:9139541,0.410919979722532
Ca4:4318296,0.410919979722532
Ca3:33883758,0.4128464363031121
Ca4:36566962,0.4128464363031121
Ca4:17690898,0.41833384234954
Ca4:15703929,0.42850750220423206
Ca4:29906826,0.432792202153444
Ca4:11325048,0.4350533430171721
Ca4:12553061,0.43545410515604
Ca4:6297533,0.43693857061605895
Ca5:28800614,0.43693857061605895
Ca4:45184930,0.44329102622396
Ca4:17854727,0.44714325977823494
Ca4:36753655,0.452066370460265
Ca8:14775875,0.452066370460265
Ca2:31947522,0.452718910989694
Ca4:40389748,0.452718910989694
scaffold1285:87811,0.45651508219790204
Ca2:32102651,0.457352359123366
Ca1:2374345,0.46161386476850397
Ca4:11253989,0.46232486240471704
Ca7:32871146,0.46232486240471704
Ca4:14135604,0.47078345799651206
Ca4:17529562,0.47078345799651206
Ca8:14722171,0.47078345799651206
Ca3:38076796,0.472222855705195
scaffold1991:66944,0.47248679804020793
Ca3:31313021,0.474970387494778
Ca4:17440860,0.474970387494778
scaffold2763:91029,0.474970387494778
Ca3:18259381,0.47934402589053005
Ca1:393327,0.48123535070158796
Ca4:29386184,0.48173365712471594
Ca2:35064514,0.48234177876993894
Ca2:35064519,0.48234177876993894
Ca3:38031623,0.48234177876993894
Ca4:11695790,0.48234177876993894
Ca4:28857438,0.48234177876993894
Ca4:28857478,0.48234177876993894
Ca1:318266,0.48305078322184497
Ca1:318271,0.48305078322184497
Ca3:36060694,0.48305078322184497
Ca4:34814454,0.48305078322184497
Ca4:36953726,0.48305078322184497
Ca6:56753150,0.48305078322184497
Ca7:12414609,0.48305078322184497
scaffold3258:21083,0.484322191939728
Ca6:51268400,0.490923074515466
Ca2:3207907,0.4973983170478579
Ca5:44937159,0.502318118272396
Ca1:42181682,0.50441996338594
Ca1:7782512,0.50441996338594
Ca1:7782514,0.50441996338594
Ca1:7782518,0.50441996338594
Ca2:33654975,0.50441996338594
Ca3:36252255,0.50441996338594
Ca3:36252256,0.50441996338594
Ca4:15062868,0.50441996338594
Ca4:15062883,0.50441996338594
Ca4:30202575,0.50441996338594
Ca4:40358767,0.50441996338594
Ca5:28729559,0.50441996338594
Ca5:28729580,0.50441996338594
scaffold2763:91040,0.505205821639736
Ca3:29996976,0.505364758752428
Ca4:17440865,0.506399414059839
Ca4:17440866,0.506399414059839
Ca3:18234844,0.506476827600199
Ca3:30078108,0.506476827600199
Ca4:29625492,0.5117566377809629
Ca4:35581657,0.5117566377809629
scaffold916:149677,0.5117566377809629
Ca4:4558411,0.5149486509930371
Ca4:31328672,0.5160610586919421
scaffold787:398905,0.5160610586919421
Ca4:37188483,0.524390698227531
Ca6:4212567,0.524390698227531
Ca3:38070736,0.524523475297608
Ca3:1871391,0.527644144083309
Ca4:40466922,0.527644144083309
Ca4:48588155,0.527644144083309
scaffold869:3114,0.5330550941068689
Ca2:31032485,0.5429677748642571
Ca2:36119837,0.5429677748642571
Ca3:15756755,0.5429677748642571
Ca3:18214832,0.5429677748642571
Ca3:8834773,0.5429677748642571
Ca3:8834777,0.5429677748642571
Ca4:12461415,0.5429677748642571
Ca4:30473260,0.5429677748642571
Ca4:34814448,0.5429677748642571
Ca4:39790418,0.5429677748642571
Ca4:8399356,0.5429677748642571
Ca4:8473120,0.5429677748642571
Ca4:8473127,0.5429677748642571
Ca5:28873622,0.5429677748642571
Ca5:28873645,0.5429677748642571
Ca5:28873665,0.5429677748642571
Ca5:46537319,0.5429677748642571
Ca4:37773277,0.543363455256353
Ca4:37773278,0.543363455256353
scaffold2722:83415,0.543363455256353
Ca3:33752973,0.5510016387084039
Ca3:18229903,0.556597143624522
Ca3:31358137,0.556597143624522
Ca4:28584312,0.556597143624522
Ca4:40432960,0.556597143624522
scaffold9:60428,0.556597143624522
Ca2:17161879,0.564043950506569
scaffold801:100051,0.564043950506569
Ca3:12132921,0.564341642870053
Ca1:2320691,0.5653134470583591
Ca3:29807248,0.5653134470583591
Ca3:3038821,0.5653134470583591
Ca4:4251864,0.5653134470583591
Ca5:4030367,0.5653134470583591
Ca7:30139113,0.5653134470583591
Ca7:5395877,0.568221120480786
scaffold451:190325,0.570079988238641
Ca5:34876507,0.571975669693632
scaffold38:496151,0.571975669693632
Ca2:31032543,0.574040933525076
Ca4:35675291,0.5791846787702061
Ca4:40135710,0.58068275402403
Ca4:15714525,0.581758436143328
scaffold242:487001,0.581758436143328
Ca4:29824441,0.5837606830650071
Ca4:32604538,0.5837606830650071
Ca3:31625307,0.5904065986847061
Ca4:20005032,0.593829822730161
Ca5:28592657,0.595690770624076
scaffold674:189687,0.595690770624076
Ca7:32810920,0.604008233668678
Ca1:9324772,0.604246192818208
Ca3:35977717,0.613507571467485
Ca2:7753419,0.614814090415824
Ca4:17764377,0.614814090415824
Ca4:7349180,0.614814090415824
Ca6:7880602,0.614814090415824
Ca7:32401115,0.614814090415824
scaffold806:35157,0.614814090415824
scaffold809:85422,0.614814090415824
Ca1:2313076,0.618757407907393
Ca4:17490696,0.618757407907393
Ca4:38832632,0.618757407907393
Ca4:38832636,0.618757407907393
Ca6:8030248,0.618757407907393
Ca7:21019002,0.618757407907393
Ca7:6050307,0.618757407907393
Ca4:11396052,0.619036081491364
Ca4:32243892,0.6237242951487061
Ca1:6434924,0.628673096977558
Ca3:31314787,0.628673096977558
Ca8:16395505,0.628673096977558
Ca8:619928,0.628673096977558
Ca8:619929,0.628673096977558
scaffold1632:71952,0.628673096977558
Ca7:32894822,0.630418274651641
Ca4:27351069,0.6316096375276851
Ca2:32423784,0.631843111679956
Ca7:46712380,0.631843111679956
Ca4:33853821,0.6339485853492359
Ca4:25472778,0.6383876236937371
Ca2:36068304,0.6416826738345961
Ca1:16106931,0.643772458099114
Ca4:4807816,0.644480881791968
Ca8:11651928,0.64503538723468
Ca2:25595340,0.645195411268418
Ca4:17440813,0.645195411268418
Ca6:10627082,0.645195411268418
Ca6:14406939,0.645195411268418
Ca6:14406977,0.645195411268418
scaffold753:245864,0.645195411268418
Ca2:2792576,0.65125421422909
Ca3:3349660,0.65125421422909
Ca3:37169604,0.65125421422909
Ca6:11106014,0.65125421422909
Ca6:11106054,0.65125421422909
Ca7:5692148,0.65125421422909
Ca1:28473203,0.65218432194826
Ca4:40278638,0.652199053386447
scaffold1751:578088,0.652199053386447
Ca3:13856108,0.65257323745024
Ca4:28018528,0.65257323745024
Ca4:38735234,0.65257323745024
Ca4:4757846,0.65257323745024
Ca8:619923,0.65257323745024
Ca8:619925,0.65257323745024
scaffold731:73845,0.65257323745024
Ca3:31509082,0.652875999539032
scaffold2763:105244,0.656291098618209
Ca4:28018541,0.660121182250588
Ca7:6062104,0.660121182250588
Ca8:667210,0.660121182250588
Ca8:667227,0.660121182250588
Ca1:1732351,0.663443222387199
Ca1:45106829,0.663443222387199
Ca2:33604807,0.663443222387199
Ca2:33648677,0.663443222387199
Ca3:28094292,0.663443222387199
Ca3:31355570,0.663443222387199
Ca3:3888778,0.663443222387199
Ca4:17429735,0.663443222387199
Ca4:17429747,0.663443222387199
Ca4:3256614,0.663443222387199
Ca4:40224991,0.663443222387199
Ca4:4128849,0.663443222387199
Ca4:4128856,0.663443222387199
Ca4:8430016,0.663443222387199
Ca5:28095266,0.663443222387199
Ca6:10039154,0.663443222387199
Ca6:10206920,0.663443222387199
Ca6:13831574,0.663443222387199
Ca6:3024192,0.663443222387199
Ca8:14745815,0.663443222387199
Ca1:6434895,0.6635339360292621
Ca1:8131450,0.6635339360292621
Ca1:8131454,0.6635339360292621
Ca3:32570467,0.6635339360292621
Ca4:4080217,0.6635339360292621
Ca6:11690243,0.6635339360292621
Ca4:30228280,0.665207535671933
Ca4:40372919,0.6680551554363111
Ca7:32928064,0.6697897149828189
Ca4:37699981,0.677480351548312
Ca1:845841,0.678008694783312
Ca3:24020521,0.678008694783312
Ca4:30869382,0.678008694783312
Ca4:37420076,0.678008694783312
Ca4:37824651,0.678008694783312
Ca4:38887022,0.678008694783312
Ca4:40255727,0.678008694783312
Ca4:44911631,0.678008694783312
Ca6:57869365,0.678008694783312
scaffold1386:53227,0.678008694783312
Ca4:35385844,0.6793568971202679
Ca4:40395188,0.6793568971202679
Ca6:7806456,0.6793568971202679
Ca4:17702565,0.6794722562119629
Ca5:44878800,0.6794722562119629
Ca6:57637830,0.681694831233115
Ca1:13633162,0.6893296750244671
Ca1:6444417,0.6893296750244671
Ca6:14376222,0.6893296750244671
Ca8:16165497,0.6893296750244671
scaffold3794:6972,0.6893296750244671
Ca1:7638718,0.69149818311336
Ca1:7638736,0.69149818311336
Ca4:41020331,0.69149818311336
Ca6:8089824,0.69149818311336
Ca1:10461670,0.6923502899871141
Ca4:4605690,0.6923502899871141
Ca6:11137607,0.6923502899871141
Ca6:9886201,0.6923502899871141
Ca1:7679875,0.6950814861117479
Ca3:29803207,0.6950814861117479
Ca4:32604313,0.6950814861117479
Ca3:29909956,0.6964090210535121
Ca4:14551560,0.6964090210535121
Ca3:29909989,0.700007073269783
Ca7:31640556,0.7024401956508499
Ca6:7943558,0.706203688876853
Ca4:22927910,0.7095193744457421
Ca3:31532622,0.710465821718383
Ca4:44948051,0.710465821718383
Ca4:44948067,0.710465821718383
Ca6:44993893,0.710465821718383
scaffold1777:120390,0.710465821718383
Ca1:2238888,0.7127978462075201
Ca1:2373466,0.7127978462075201
Ca4:11632342,0.7127978462075201
Ca4:38785205,0.7127978462075201
Ca4:4629355,0.7127978462075201
Ca5:44880148,0.7127978462075201
Ca6:45497743,0.7127978462075201
Ca8:11732491,0.7127978462075201
Ca7:31851638,0.7153113649176501
Ca1:1123177,0.7153552085217341
Ca4:44090829,0.7153552085217341
Ca4:37008963,0.728653343062343
Ca4:11243197,0.733966293612805
Ca1:6138657,0.7409674712939459
Ca1:8131436,0.7409674712939459
Ca4:33356972,0.7409674712939459
Ca4:37009665,0.7409674712939459
Ca1:2510183,0.74525799637631
Ca1:45081475,0.74525799637631
Ca3:26879200,0.74525799637631
Ca3:29684330,0.74525799637631
Ca3:29684369,0.74525799637631
Ca4:1641443,0.74525799637631
Ca4:3293817,0.74525799637631
Ca4:41086612,0.74525799637631
Ca6:12894082,0.74525799637631
Ca4:35005146,0.750411244312822
Ca1:15435878,0.7506173197139259
Ca1:2869467,0.7506173197139259
Ca1:2869532,0.7506173197139259
Ca3:31603422,0.7506173197139259
Ca3:31603426,0.7506173197139259
Ca4:16988596,0.7506173197139259
Ca4:22821202,0.7506173197139259
Ca6:10396045,0.7506173197139259
scaffold102:123030,0.7506173197139259
scaffold17:28699,0.7506173197139259
scaffold1722:40009,0.7506173197139259
Ca4:28018502,0.7534471660620171
Ca4:8523488,0.7534471660620171
Ca6:12978716,0.7534471660620171
Ca6:12978733,0.7534471660620171
Ca6:7943546,0.7534471660620171
Ca2:36068289,0.7550093057350709
Ca3:24538982,0.7580676769975309
Ca1:7996133,0.758197407619697
Ca3:38081386,0.758197407619697
Ca4:11465636,0.758197407619697
Ca4:27859895,0.758197407619697
Ca4:27859898,0.758197407619697
Ca4:40214018,0.758197407619697
Ca5:44673852,0.758197407619697
scaffold1193:171080,0.758197407619697
scaffold2325:52465,0.760831440952997
Ca4:37805026,0.765629360230174
Ca1:1963329,0.7689443939466422
Ca4:37479056,0.7689443939466422
Ca4:29049436,0.775519946662348
Ca4:37797231,0.775519946662348
Ca3:20130876,0.7760203561270559
Ca3:14182413,0.780838097792845
Ca3:14182435,0.780838097792845
Ca3:14182440,0.780838097792845
Ca3:36018140,0.780838097792845
Ca4:4605719,0.780838097792845
Ca8:619780,0.780838097792845
Ca4:45135959,0.7857157900375341
Ca1:8004691,0.7860328480649251
Ca4:15714476,0.786357693621243
Ca1:978810,0.7887635027511769
Ca1:7978738,0.793022901228614
Ca4:4629282,0.793022901228614
Ca6:11737222,0.7955225221698491
Ca6:7817272,0.7955225221698491
Ca1:4474445,0.796862838380543
Ca1:872675,0.796862838380543
Ca2:2762117,0.796862838380543
Ca3:30038144,0.796862838380543
Ca3:8852493,0.796862838380543
Ca4:15409212,0.796862838380543
Ca4:22696292,0.796862838380543
Ca4:4429522,0.796862838380543
Ca6:2464948,0.796862838380543
scaffold40:118878,0.796862838380543
Ca2:35384178,0.7972443077203221
Ca6:57891716,0.7972443077203221
Ca4:33967674,0.7996001957669671
Ca4:47209220,0.8020799560814279
Ca6:59231462,0.8020799560814279
Ca1:7996105,0.8046391760180791
Ca4:36951942,0.8070374297634059
scaffold284:163025,0.8070374297634059
Ca2:31856172,0.8095580153042741
Ca5:38152360,0.809701914593997
Ca2:31421324,0.8123570392665219
Ca4:17279574,0.8137350395487021
Ca5:43777906,0.8137350395487021
Ca4:46228483,0.814732056390726
Ca1:34754596,0.81627401276718
Ca2:30574820,0.825720985776491
Ca3:38164627,0.826795454575859
Ca5:40696920,0.826795454575859
Ca1:2512573,0.8292537897779619
Ca1:27012950,0.8292537897779619
Ca1:27012952,0.8292537897779619
Ca4:17663691,0.8292537897779619
Ca4:4118267,0.8292537897779619
Ca4:4206822,0.8292537897779619
Ca5:39545825,0.8292537897779619
Ca6:57812654,0.8292537897779619
Ca8:11736056,0.8292537897779619
Ca6:2321986,0.833117739309336
Ca6:56562851,0.833117739309336
scaffold2179:85795,0.833117739309336
Ca1:399402,0.838871761909888
Ca4:29269161,0.840836129285457
Ca6:56563870,0.840836129285457
Ca3:31570848,0.843137756309893
scaffold174:16912,0.843137756309893
Ca1:420734,0.8491564719752019
Ca2:30574765,0.8491564719752019
Ca3:28437425,0.8491564719752019
Ca4:32378080,0.8491564719752019
Ca6:10592107,0.8491564719752019
Ca6:10592170,0.8491564719752019
Ca6:41249340,0.8499474467092
Ca4:3235996,0.850311091889019
Ca1:5511968,0.8525394712527509
Ca1:882266,0.8525394712527509
Ca2:7893021,0.8525394712527509
Ca4:11699275,0.8525394712527509
Ca4:18823770,0.8525394712527509
Ca4:32819412,0.8525394712527509
Ca5:208045,0.8525394712527509
Ca6:14574171,0.8525394712527509
Ca6:57707426,0.8525394712527509
Ca6:57707441,0.8525394712527509
Ca4:15065615,0.854119213971152
Ca3:9032358,0.8557207223764649
Ca4:15735041,0.8557207223764649
Ca4:31334177,0.8557207223764649
Ca5:38153552,0.8609178922214209
Ca6:11181031,0.8609178922214209
Ca7:30041149,0.8609178922214209
Ca8:14745841,0.8609178922214209
scaffold398:297458,0.862129041850604
Ca1:27989387,0.8634739880732399
Ca1:27989391,0.8634739880732399
Ca2:3548884,0.8647462865682919
Ca4:28549121,0.8647462865682919
Ca2:3005300,0.865379883675918
Ca3:31520967,0.8664330711081221
Ca6:16385056,0.8664330711081221
scaffold174:408064,0.8664330711081221
Ca4:29682569,0.866926428854942
Ca2:35357922,0.869945063396548
Ca2:36037185,0.869945063396548
Ca4:11517999,0.869945063396548
Ca4:4239282,0.869945063396548
Ca4:45166997,0.869945063396548
Ca7:32170699,0.869945063396548
Ca7:32170702,0.869945063396548
scaffold1128:176672,0.872294426603663
Ca6:10698604,0.8750770201372821
Ca8:16291425,0.8750770201372821
Ca1:5124322,0.875372457677027
Ca2:35599059,0.875372457677027
Ca2:36032263,0.875372457677027
Ca3:36018152,0.875372457677027
Ca4:11699244,0.875372457677027
Ca4:15448333,0.875372457677027
Ca4:17303877,0.875372457677027
Ca4:30268888,0.875372457677027
Ca4:32301560,0.875372457677027
Ca4:36759142,0.875372457677027
Ca4:39091736,0.875372457677027
Ca4:44625711,0.875372457677027
Ca5:395994,0.875372457677027
Ca6:57932424,0.875372457677027
Ca7:43346567,0.875372457677027
Ca7:6080276,0.875372457677027
scaffold1466:315041,0.875372457677027
scaffold420:272354,0.875372457677027
Ca1:737218,0.876704572432744
Ca3:18264307,0.878064544916797
Ca3:18264311,0.878064544916797
Ca7:6324745,0.878064544916797
Ca3:36799176,0.879101764498562
Ca7:17275754,0.8803406709106519
scaffold1052:54213,0.8803406709106519
Ca4:36759151,0.882264671668016
Ca4:36759160,0.882264671668016
Ca5:44823759,0.882264671668016
Ca6:19751290,0.882264671668016
scaffold1907:64449,0.882264671668016
scaffold1991:16485,0.882264671668016
Ca1:2388102,0.882460442154301
Ca2:34339472,0.882460442154301
Ca2:34339476,0.882460442154301
Ca4:17854162,0.882460442154301
Ca4:25238,0.882460442154301
Ca4:33059495,0.882460442154301
Ca4:8851842,0.882460442154301
Ca6:57654369,0.882460442154301
Ca7:33024946,0.882460442154301
Ca7:47381778,0.882460442154301
Ca8:693722,0.882460442154301
Ca8:9259370,0.882460442154301
scaffold174:377064,0.882460442154301
Ca2:35189750,0.882895295764353
Ca3:3198672,0.8838120822389292
Ca3:33987268,0.8838120822389292
Ca4:36600114,0.8857600058073901
Ca4:40272317,0.8857600058073901
scaffold398:350393,0.8857600058073901
scaffold2848:7133,0.8880085291508371
scaffold1197:110945,0.88880113460785
Ca4:15773237,0.8894901736579721
Ca4:39936162,0.8894901736579721
Ca2:35427141,0.8900837883499341
Ca5:28186627,0.890407836899191
Ca2:27434688,0.8904483939799841
Ca1:19942950,0.891607599786797
Ca4:29011930,0.891607599786797
Ca4:30138520,0.891607599786797
Ca4:30138554,0.891607599786797
Ca4:37634286,0.891607599786797
Ca4:37852266,0.891607599786797
Ca4:40379926,0.891607599786797
Ca2:17540722,0.896763250213688
Ca4:14180446,0.896763250213688
Ca6:2377295,0.896763250213688
scaffold419:184175,0.896763250213688
scaffold707:64875,0.897654946584385
Ca2:36124365,0.9021322144186992
Ca4:3302269,0.9021322144186992
Ca4:3381999,0.9021322144186992
Ca4:8330934,0.9021322144186992
Ca4:11577833,0.903167472144942
Ca1:13509382,0.9032226740243141
Ca1:13509384,0.9032226740243141
Ca1:5632070,0.9032226740243141
Ca2:35756031,0.9032226740243141
Ca3:36872891,0.9032226740243141
Ca4:12075322,0.9032226740243141
Ca4:32301542,0.9032226740243141
Ca5:33339443,0.9032226740243141
Ca6:7927665,0.9032226740243141
Ca8:692206,0.9032226740243141
Ca8:692223,0.9032226740243141
scaffold1545:10820,0.9032226740243141
scaffold290:232855,0.9032226740243141
scaffold299:191010,0.9032226740243141
Ca2:30580435,0.906565569747712
Ca2:35352028,0.906565569747712
Ca4:30999387,0.906565569747712
Ca4:37009047,0.906565569747712
Ca6:10898890,0.906565569747712
Ca6:10898897,0.906565569747712
Ca7:6037614,0.906565569747712
Ca8:14778377,0.906565569747712
Ca8:14778407,0.906565569747712
Ca5:29008230,0.910321108188987
Ca2:3055511,0.9113191004351379
Ca7:3561351,0.9153191118253722
Ca1:2330274,0.916069332295001
Ca2:10757384,0.916759030773785
scaffold801:76927,0.916759030773785
Ca4:32421629,0.9168791493303711
Ca3:29803143,0.918205350504528
Ca4:11763248,0.918205350504528
Ca4:33316298,0.918205350504528
Ca4:3381983,0.918205350504528
Ca5:44572156,0.918205350504528
Ca6:10173505,0.918205350504528
Ca8:14578703,0.918205350504528
scaffold1466:184749,0.918205350504528
Ca1:11666604,0.919747480682385
Ca1:11666624,0.919747480682385
Ca1:1242015,0.919747480682385
Ca1:13526551,0.919747480682385
Ca1:13526561,0.919747480682385
Ca3:29675511,0.919747480682385
Ca3:29835051,0.919747480682385
Ca3:31608463,0.919747480682385
Ca4:17309732,0.919747480682385
Ca4:29092608,0.919747480682385
Ca4:29092609,0.919747480682385
Ca4:37009641,0.919747480682385
Ca4:39162941,0.919747480682385
Ca4:39936124,0.919747480682385
Ca6:11126059,0.919747480682385
Ca6:57654350,0.919747480682385
Ca7:20610728,0.919747480682385
Ca7:20610732,0.919747480682385
Ca7:20610738,0.919747480682385
scaffold17:292869,0.919747480682385
scaffold242:332880,0.919747480682385
scaffold290:379588,0.919747480682385
scaffold88:277357,0.919747480682385
Ca6:23644946,0.920924505724905
Ca7:29753839,0.920924505724905
Ca2:27622877,0.921377412134326
Ca2:31894899,0.921377412134326
Ca2:32155009,0.921377412134326
Ca3:31624671,0.921377412134326
Ca3:31624682,0.921377412134326
Ca4:25935007,0.921377412134326
Ca4:36759177,0.921377412134326
Ca8:13736583,0.921377412134326
Ca8:14661439,0.921377412134326
Ca8:14661440,0.921377412134326
scaffold2192:80640,0.921377412134326
scaffold845:22807,0.921377412134326
Ca2:7701206,0.9222691102632959
Ca1:2118249,0.923129731359673
Ca1:3053615,0.923129731359673
Ca1:752961,0.923129731359673
Ca2:2838505,0.923129731359673
Ca3:29908981,0.923129731359673
Ca3:29908982,0.923129731359673
Ca7:5548887,0.923129731359673
Ca3:29835057,0.923457159830952
Ca3:36799204,0.923457159830952
Ca4:15608950,0.923457159830952
Ca4:15612712,0.923457159830952
Ca4:17677429,0.923457159830952
Ca4:29135094,0.923457159830952
Ca4:29135096,0.923457159830952
Ca4:29135119,0.923457159830952
Ca4:30051307,0.923457159830952
Ca4:38976836,0.923457159830952
Ca4:8101219,0.923457159830952
Ca6:57130483,0.923457159830952
Ca7:32286274,0.923457159830952
Ca2:20913309,0.9258501541052891
scaffold1180:279322,0.9258501541052891
scaffold1180:279339,0.9258501541052891
Ca1:771989,0.9303370418281451
Ca3:20410216,0.9303370418281451
Ca4:30151414,0.9303370418281451
Ca4:36925687,0.9303370418281451
Ca6:10167314,0.9303370418281451
Ca6:14569027,0.9303370418281451
Ca6:57836650,0.9303370418281451
Ca6:9766736,0.9303370418281451
Ca6:9766746,0.9303370418281451
scaffold1324:92069,0.9303370418281451
scaffold2575:50250,0.9303370418281451
scaffold845:22805,0.9303370418281451
Ca2:34631860,0.930767710647722
Ca3:37966174,0.930767710647722
Ca4:14865246,0.930767710647722
Ca4:14865247,0.930767710647722
Ca4:40400518,0.930767710647722
Ca4:4724931,0.930767710647722
Ca6:11167317,0.930767710647722
Ca8:14661477,0.930767710647722
scaffold420:143648,0.930767710647722
Ca5:28042628,0.9309073995118878
Ca5:44760946,0.937739681931937
Ca6:13399573,0.9379475585375109
Ca6:13399594,0.9379475585375109
Ca2:901869,0.939978076708608
Ca4:44721695,0.939978076708608
Ca4:27809456,0.941131864214715
Ca4:34018665,0.941131864214715
scaffold4978:9367,0.941131864214715
Ca1:13699033,0.943439290928523
Ca3:36872616,0.943439290928523
Ca1:11640593,0.9435722566339398
Ca1:18468432,0.9435722566339398
Ca1:8849631,0.9435722566339398
Ca2:19303600,0.9435722566339398
Ca2:36037159,0.9435722566339398
Ca4:36600066,0.9435722566339398
Ca4:44907698,0.9435722566339398
Ca5:17438824,0.9435722566339398
Ca6:7179855,0.9435722566339398
Ca7:26774803,0.9438514214709219
Ca3:29665307,0.945142483300125
scaffold1176_2:126326,0.9476234477988821
Ca2:35751227,0.947778562942149
Ca3:23433956,0.947778562942149
Ca4:32819413,0.947778562942149
Ca4:44771644,0.947778562942149
Ca2:20037932,0.947921391249097
Ca1:45078111,0.9483422745940849
Ca1:45078161,0.9483422745940849
Ca2:30374790,0.9483422745940849
Ca2:30374791,0.9483422745940849
Ca4:22918539,0.9483422745940849
Ca6:9941649,0.9483422745940849
Ca4:37009628,0.9488802081534229
Ca4:44932723,0.9488802081534229
Ca7:26492619,0.953628962393438
Ca7:31945303,0.953628962393438
Ca2:34900485,0.9540492341744681
Ca7:31104463,0.9540492341744681
scaffold7355:21052,0.9540492341744681
Ca6:10510492,0.954722402535582
Ca4:23099637,0.9568829741257919
Ca6:9941629,0.9568829741257919
Ca5:21080699,0.959299602280642
Ca2:35187617,0.9595369244933709
Ca6:37061655,0.9595369244933709
Ca1:11640584,0.960100271650078
Ca4:3332442,0.960100271650078
Ca4:40358804,0.960100271650078
Ca4:49050700,0.960100271650078
Ca7:39197711,0.960100271650078
scaffold419:15617,0.960100271650078
Ca2:3505066,0.9608962289750309
Ca6:59157905,0.9608962289750309
Ca1:26850232,0.9613904793305391
Ca1:44150305,0.9613904793305391
Ca1:8166033,0.9613904793305391
Ca1:9032848,0.9613904793305391
Ca2:28383911,0.9613904793305391
Ca4:32212451,0.9613904793305391
Ca4:4407288,0.9613904793305391
Ca6:10173534,0.9613904793305391
Ca6:10173555,0.9613904793305391
Ca6:10173558,0.9613904793305391
Ca6:11101804,0.9613904793305391
Ca6:12976211,0.9613904793305391
Ca6:12976214,0.9613904793305391
Ca6:2247962,0.9613904793305391
Ca6:52154966,0.9613904793305391
Ca6:57115292,0.9613904793305391
Ca6:7909290,0.9613904793305391
Ca7:33042729,0.9613904793305391
Ca8:16022287,0.9613904793305391
Ca8:628958,0.9613904793305391
Ca2:31904118,0.9620009772164101
scaffold340:282077,0.9620009772164101
Ca1:25737022,0.964190700007063
Ca1:3081553,0.964190700007063
Ca2:35347613,0.964190700007063
Ca3:31626318,0.964190700007063
Ca3:36690022,0.964190700007063
Ca3:36895461,0.964190700007063
Ca3:7654285,0.964190700007063
Ca4:15752294,0.964190700007063
Ca4:22609255,0.964190700007063
Ca4:39091734,0.964190700007063
Ca4:8471174,0.964190700007063
Ca4:8471177,0.964190700007063
Ca5:44545076,0.964190700007063
Ca6:10362380,0.964190700007063
Ca6:11601270,0.964190700007063
Ca6:11601288,0.964190700007063
Ca6:14204400,0.964190700007063
Ca6:7927681,0.964190700007063
Ca6:7927708,0.964190700007063
Ca7:18833313,0.964190700007063
Ca7:20545630,0.964190700007063
Ca7:33337524,0.964190700007063
Ca7:3573998,0.964190700007063
Ca8:14661428,0.964190700007063
Ca8:14661453,0.964190700007063
Ca4:8656398,0.966885101283595
scaffold996:33013,0.9672124350068991
Ca2:35479371,0.967464819759743
Ca3:31608411,0.967464819759743
Ca4:37813213,0.967464819759743
Ca4:38594149,0.967464819759743
Ca4:38594173,0.967464819759743
Ca5:418794,0.967464819759743
Ca6:10366163,0.967464819759743
Ca6:2611619,0.967464819759743
Ca6:7879787,0.967464819759743
Ca7:26612242,0.967464819759743
scaffold223:71754,0.967464819759743
Ca6:26506180,0.9709396815541971
Ca7:47408508,0.9709396815541971
Ca8:16259584,0.9709396815541971
Ca2:10256821,0.9711007173789319
Ca1:47067099,0.972540619274378
Ca1:47520250,0.9737103690630781
Ca3:20001708,0.9737103690630781
Ca4:38008205,0.9737103690630781
Ca8:11780267,0.9737103690630781
Ca8:11780269,0.9737103690630781
scaffold174:422652,0.9737103690630781
scaffold284:636896,0.9737103690630781
Ca5:28207323,0.974720742304098
Ca7:23574252,0.9752013001980391
Ca2:31643643,0.977685103247768
Ca2:35759981,0.977685103247768
Ca3:19740402,0.977685103247768
Ca4:46771776,0.977685103247768
Ca6:10428841,0.977685103247768
Ca7:34175881,0.977685103247768
Ca7:3575669,0.977685103247768
Ca1:40608784,0.9792480476472271
Ca4:40967969,0.9792480476472271
Ca1:28560300,0.9792542765322919
Ca4:41159604,0.9792542765322919
Ca7:35514737,0.9792542765322919
Ca2:3032719,0.984808869763882
Ca4:16988626,0.984808869763882
Ca4:39316404,0.984808869763882
Ca4:4333836,0.984808869763882
Ca8:11788936,0.984808869763882
scaffold1348_1:818293,0.984808869763882
Ca7:44317236,0.9855036469654259
Ca4:30607860,0.9893015552031601
Ca1:13275987,0.991617857221673
Ca3:23156422,0.991617857221673
Ca4:11700153,0.991617857221673
Ca4:36812360,0.991617857221673
Ca6:2814827,0.991617857221673
Ca6:7700194,0.991617857221673
Ca7:30973608,0.991617857221673
Ca8:11780232,0.991617857221673
scaffold134:221977,0.991617857221673
scaffold134:221978,0.991617857221673
Ca2:35586082,0.993651567043997
Ca3:9387546,0.993651567043997
Ca4:29915235,0.9937067957616501
Ca6:56573710,0.9937067957616501
Ca6:56573713,0.9937067957616501
Ca1:5391354,0.9958763595174169
Ca2:2787526,0.9958763595174169
Ca2:31421156,0.9958763595174169
Ca3:25445634,0.9958763595174169
Ca3:8665431,0.9958763595174169
Ca3:8665435,0.9958763595174169
Ca4:14194410,0.9958763595174169
Ca4:14871290,0.9958763595174169
Ca4:15409196,0.9958763595174169
Ca4:26120154,0.9958763595174169
Ca4:27626672,0.9958763595174169
Ca4:27919911,0.9958763595174169
Ca4:33853792,0.9958763595174169
Ca4:34863665,0.9958763595174169
Ca4:36759161,0.9958763595174169
Ca4:38161726,0.9958763595174169
Ca4:38501343,0.9958763595174169
Ca4:38770582,0.9958763595174169
Ca4:40373450,0.9958763595174169
Ca4:40466932,0.9958763595174169
Ca4:40728094,0.9958763595174169
Ca4:4332603,0.9958763595174169
Ca4:45365045,0.9958763595174169
Ca4:4796209,0.9958763595174169
Ca4:8717255,0.9958763595174169
Ca4:8805782,0.9958763595174169
Ca4:8805803,0.9958763595174169
Ca5:34739517,0.9958763595174169
Ca6:14476521,0.9958763595174169
Ca6:2225928,0.9958763595174169
Ca6:2420148,0.9958763595174169
Ca6:32434627,0.9958763595174169
Ca6:32434645,0.9958763595174169
Ca6:39303444,0.9958763595174169
Ca6:59158167,0.9958763595174169
Ca7:1952888,0.9958763595174169
Ca7:28538229,0.9958763595174169
Ca8:620365,0.9958763595174169
scaffold12:362356,0.9958763595174169
scaffold812:292626,0.9958763595174169
scaffold812:386582,0.9958763595174169
Ca1:26904125,0.9960779585491359
Ca4:27237037,0.9981467449710458
Ca2:22944322,0.9983134819967892
Ca4:17429699,0.9983134819967892
Ca4:28348706,0.9983134819967892
Ca4:38688610,0.9983134819967892
Ca6:11070712,0.9983134819967892
Ca6:7825921,0.9983134819967892
Ca6:7825978,0.9983134819967892
Ca7:30041164,0.9983134819967892
Ca7:33256312,0.9983134819967892
Ca6:10320161,0.9984740417052321
Ca6:7943621,0.9986449179642579
Ca6:59266750,0.9990970922994709
Ca1:101073,0.999205757185081
Ca1:11157559,0.999205757185081
Ca1:11179392,0.999205757185081
Ca1:11229616,0.999205757185081
Ca1:11231543,0.999205757185081
Ca1:11231544,0.999205757185081
Ca1:11231562,0.999205757185081
Ca1:11241476,0.999205757185081
Ca1:11259779,0.999205757185081
Ca1:11259822,0.999205757185081
Ca1:11259879,0.999205757185081
Ca1:11265516,0.999205757185081
Ca1:11277577,0.999205757185081
Ca1:11277611,0.999205757185081
Ca1:11283439,0.999205757185081
Ca1:11290069,0.999205757185081
Ca1:11293696,0.999205757185081
Ca1:11329379,0.999205757185081
Ca1:11333491,0.999205757185081
Ca1:11333521,0.999205757185081
Ca1:11333531,0.999205757185081
Ca1:11342281,0.999205757185081
Ca1:11371968,0.999205757185081
Ca1:11372006,0.999205757185081
Ca1:11375680,0.999205757185081
Ca1:11400073,0.999205757185081
Ca1:11400548,0.999205757185081
Ca1:11405472,0.999205757185081
Ca1:11407643,0.999205757185081
Ca1:11469033,0.999205757185081
Ca1:1155142,0.999205757185081
Ca1:11575751,0.999205757185081
Ca1:11609631,0.999205757185081
Ca1:11609677,0.999205757185081
Ca1:11691084,0.999205757185081
Ca1:1224263,0.999205757185081
Ca1:12388339,0.999205757185081
Ca1:12502663,0.999205757185081
Ca1:1270990,0.999205757185081
Ca1:1337817,0.999205757185081
Ca1:14134657,0.999205757185081
Ca1:1423164,0.999205757185081
Ca1:1457542,0.999205757185081
Ca1:14595102,0.999205757185081
Ca1:1463497,0.999205757185081
Ca1:1528162,0.999205757185081
Ca1:1533118,0.999205757185081
Ca1:1536432,0.999205757185081
Ca1:1545721,0.999205757185081
Ca1:1552406,0.999205757185081
Ca1:1560796,0.999205757185081
Ca1:1590875,0.999205757185081
Ca1:15953406,0.999205757185081
Ca1:1643959,0.999205757185081
Ca1:1651662,0.999205757185081
Ca1:1680426,0.999205757185081
Ca1:1680454,0.999205757185081
Ca1:1694313,0.999205757185081
Ca1:17373138,0.999205757185081
Ca1:1744087,0.999205757185081
Ca1:1745498,0.999205757185081
Ca1:1769208,0.999205757185081
Ca1:17732997,0.999205757185081
Ca1:17854164,0.999205757185081
Ca1:18015960,0.999205757185081
Ca1:18163100,0.999205757185081
Ca1:18163132,0.999205757185081
Ca1:18163143,0.999205757185081
Ca1:18207095,0.999205757185081
Ca1:18210524,0.999205757185081
Ca1:18256082,0.999205757185081
Ca1:18256103,0.999205757185081
Ca1:1826905,0.999205757185081
Ca1:1826915,0.999205757185081
Ca1:18273640,0.999205757185081
Ca1:18273664,0.999205757185081
Ca1:18381505,0.999205757185081
Ca1:18470050,0.999205757185081
Ca1:1858717,0.999205757185081
Ca1:1859502,0.999205757185081
Ca1:1859532,0.999205757185081
Ca1:1859541,0.999205757185081
Ca1:19311081,0.999205757185081
Ca1:19561434,0.999205757185081
Ca1:19561438,0.999205757185081
Ca1:19563356,0.999205757185081
Ca1:19566555,0.999205757185081
Ca1:19572921,0.999205757185081
Ca1:19586280,0.999205757185081
Ca1:19663532,0.999205757185081
Ca1:19672609,0.999205757185081
Ca1:1968309,0.999205757185081
Ca1:19688669,0.999205757185081
Ca1:19688677,0.999205757185081
Ca1:1970785,0.999205757185081
Ca1:19804162,0.999205757185081
Ca1:21999608,0.999205757185081
Ca1:22016193,0.999205757185081
Ca1:22106541,0.999205757185081
Ca1:22112036,0.999205757185081
Ca1:2218700,0.999205757185081
Ca1:2225735,0.999205757185081
Ca1:2234274,0.999205757185081
Ca1:2238867,0.999205757185081
Ca1:2238891,0.999205757185081
Ca1:22611964,0.999205757185081
Ca1:22729624,0.999205757185081
Ca1:2309179,0.999205757185081
Ca1:2313615,0.999205757185081
Ca1:2320673,0.999205757185081
Ca1:2330287,0.999205757185081
Ca1:2342137,0.999205757185081
Ca1:23621481,0.999205757185081
Ca1:2364872,0.999205757185081
Ca1:2375294,0.999205757185081
Ca1:2375928,0.999205757185081
Ca1:2513046,0.999205757185081
Ca1:25296770,0.999205757185081
Ca1:2548183,0.999205757185081
Ca1:2579883,0.999205757185081
Ca1:26966675,0.999205757185081
Ca1:2854316,0.999205757185081
Ca1:28628201,0.999205757185081
Ca1:28641687,0.999205757185081
Ca1:2933533,0.999205757185081
Ca1:2981187,0.999205757185081
Ca1:29930356,0.999205757185081
Ca1:30833099,0.999205757185081
Ca1:30928671,0.999205757185081
Ca1:31477002,0.999205757185081
Ca1:31483584,0.999205757185081
Ca1:33512355,0.999205757185081
Ca1:34314586,0.999205757185081
Ca1:350494,0.999205757185081
Ca1:35261112,0.999205757185081
Ca1:36957920,0.999205757185081
Ca1:37600731,0.999205757185081
Ca1:396182,0.999205757185081
Ca1:40079749,0.999205757185081
Ca1:41430512,0.999205757185081
Ca1:430734,0.999205757185081
Ca1:430735,0.999205757185081
Ca1:44026499,0.999205757185081
Ca1:44522192,0.999205757185081
Ca1:44810011,0.999205757185081
Ca1:48221691,0.999205757185081
Ca1:5391371,0.999205757185081
Ca1:5428080,0.999205757185081
Ca1:5614996,0.999205757185081
Ca1:5619968,0.999205757185081
Ca1:5638251,0.999205757185081
Ca1:5638273,0.999205757185081
Ca1:5645640,0.999205757185081
Ca1:5720006,0.999205757185081
Ca1:5720035,0.999205757185081
Ca1:5729575,0.999205757185081
Ca1:5745277,0.999205757185081
Ca1:5757141,0.999205757185081
Ca1:6144083,0.999205757185081
Ca1:6154711,0.999205757185081
Ca1:6327680,0.999205757185081
Ca1:6327709,0.999205757185081
Ca1:6335995,0.999205757185081
Ca1:6444438,0.999205757185081
Ca1:7340139,0.999205757185081
Ca1:7478974,0.999205757185081
Ca1:7489046,0.999205757185081
Ca1:7497743,0.999205757185081
Ca1:7498240,0.999205757185081
Ca1:7529146,0.999205757185081
Ca1:7529156,0.999205757185081
Ca1:7565347,0.999205757185081
Ca1:7710021,0.999205757185081
Ca1:7793021,0.999205757185081
Ca1:7843735,0.999205757185081
Ca1:838327,0.999205757185081
Ca1:8712823,0.999205757185081
Ca1:8726473,0.999205757185081
Ca1:8728442,0.999205757185081
Ca1:8820515,0.999205757185081
Ca1:8862913,0.999205757185081
Ca1:8871203,0.999205757185081
Ca1:8986537,0.999205757185081
Ca1:8999387,0.999205757185081
Ca1:9016272,0.999205757185081
Ca1:9016288,0.999205757185081
Ca1:9024339,0.999205757185081
Ca1:9055446,0.999205757185081
Ca1:9074506,0.999205757185081
Ca1:9096456,0.999205757185081
Ca1:9120585,0.999205757185081
Ca1:9120611,0.999205757185081
Ca1:9165805,0.999205757185081
Ca1:9165817,0.999205757185081
Ca1:9176297,0.999205757185081
Ca1:9267507,0.999205757185081
Ca1:9268282,0.999205757185081
Ca1:9268307,0.999205757185081
Ca1:9268594,0.999205757185081
Ca1:9331447,0.999205757185081
Ca1:9331459,0.999205757185081
Ca1:9331481,0.999205757185081
Ca1:9379381,0.999205757185081
Ca1:9425219,0.999205757185081
Ca1:952261,0.999205757185081
Ca1:9852553,0.999205757185081
Ca2:12186178,0.999205757185081
Ca2:15155326,0.999205757185081
Ca2:15330079,0.999205757185081
Ca2:15945111,0.999205757185081
Ca2:1629003,0.999205757185081
Ca2:17432752,0.999205757185081
Ca2:1906129,0.999205757185081
Ca2:19604640,0.999205757185081
Ca2:20562280,0.999205757185081
Ca2:22026177,0.999205757185081
Ca2:22102276,0.999205757185081
Ca2:2405409,0.999205757185081
Ca2:2608533,0.999205757185081
Ca2:2705071,0.999205757185081
Ca2:2710291,0.999205757185081
Ca2:2720749,0.999205757185081
Ca2:2834214,0.999205757185081
Ca2:2834253,0.999205757185081
Ca2:28956986,0.999205757185081
Ca2:30374824,0.999205757185081
Ca2:30457057,0.999205757185081
Ca2:3068910,0.999205757185081
Ca2:30735056,0.999205757185081
Ca2:30801941,0.999205757185081
Ca2:30866599,0.999205757185081
Ca2:30903822,0.999205757185081
Ca2:30910547,0.999205757185081
Ca2:30917353,0.999205757185081
Ca2:30917366,0.999205757185081
Ca2:30919612,0.999205757185081
Ca2:30922323,0.999205757185081
Ca2:3092645,0.999205757185081
Ca2:30928168,0.999205757185081
Ca2:30951694,0.999205757185081
Ca2:30951724,0.999205757185081
Ca2:30952417,0.999205757185081
Ca2:30954617,0.999205757185081
Ca2:31049474,0.999205757185081
Ca2:31049484,0.999205757185081
Ca2:31058220,0.999205757185081
Ca2:31073108,0.999205757185081
Ca2:31081323,0.999205757185081
Ca2:31139246,0.999205757185081
Ca2:31139251,0.999205757185081
Ca2:31203154,0.999205757185081
Ca2:31235335,0.999205757185081
Ca2:31248426,0.999205757185081
Ca2:31681999,0.999205757185081
Ca2:31810785,0.999205757185081
Ca2:31823265,0.999205757185081
Ca2:31903218,0.999205757185081
Ca2:31939988,0.999205757185081
Ca2:32016130,0.999205757185081
Ca2:32423816,0.999205757185081
Ca2:34149173,0.999205757185081
Ca2:34324737,0.999205757185081
Ca2:34339228,0.999205757185081
Ca2:34339296,0.999205757185081
Ca2:34339304,0.999205757185081
Ca2:35437537,0.999205757185081
Ca2:35449133,0.999205757185081
Ca2:35465603,0.999205757185081
Ca2:35465625,0.999205757185081
Ca2:35465636,0.999205757185081
Ca2:35570366,0.999205757185081
Ca2:35594485,0.999205757185081
Ca2:35594532,0.999205757185081
Ca2:35594535,0.999205757185081
Ca2:35594675,0.999205757185081
Ca2:35594685,0.999205757185081
Ca2:35594689,0.999205757185081
Ca2:35677819,0.999205757185081
Ca2:35677861,0.999205757185081
Ca2:35718169,0.999205757185081
Ca2:35742640,0.999205757185081
Ca2:36008104,0.999205757185081
Ca2:3739254,0.999205757185081
Ca2:3794341,0.999205757185081
Ca2:3794373,0.999205757185081
Ca2:3804164,0.999205757185081
Ca2:4229569,0.999205757185081
Ca2:479985,0.999205757185081
Ca2:5717915,0.999205757185081
Ca2:7714392,0.999205757185081
Ca2:7752675,0.999205757185081
Ca2:7753425,0.999205757185081
Ca2:7753440,0.999205757185081
Ca2:7918355,0.999205757185081
Ca2:7926666,0.999205757185081
Ca2:7926702,0.999205757185081
Ca2:8172905,0.999205757185081
Ca3:10062634,0.999205757185081
Ca3:10476801,0.999205757185081
Ca3:10855323,0.999205757185081
Ca3:1177850,0.999205757185081
Ca3:12003642,0.999205757185081
Ca3:12003645,0.999205757185081
Ca3:12281383,0.999205757185081
Ca3:13549163,0.999205757185081
Ca3:16028784,0.999205757185081
Ca3:1622565,0.999205757185081
Ca3:16685969,0.999205757185081
Ca3:17194663,0.999205757185081
Ca3:17647189,0.999205757185081
Ca3:18479987,0.999205757185081
Ca3:18479990,0.999205757185081
Ca3:18489048,0.999205757185081
Ca3:1860627,0.999205757185081
Ca3:19501397,0.999205757185081
Ca3:19751256,0.999205757185081
Ca3:19808317,0.999205757185081
Ca3:19883820,0.999205757185081
Ca3:19899167,0.999205757185081
Ca3:19899168,0.999205757185081
Ca3:19956833,0.999205757185081
Ca3:19956834,0.999205757185081
Ca3:20001733,0.999205757185081
Ca3:20027761,0.999205757185081
Ca3:20027788,0.999205757185081
Ca3:20035986,0.999205757185081
Ca3:20036011,0.999205757185081
Ca3:20036831,0.999205757185081
Ca3:20064044,0.999205757185081
Ca3:20549509,0.999205757185081
Ca3:22813303,0.999205757185081
Ca3:23520665,0.999205757185081
Ca3:23707140,0.999205757185081
Ca3:25158874,0.999205757185081
Ca3:26845799,0.999205757185081
Ca3:2847787,0.999205757185081
Ca3:29513475,0.999205757185081
Ca3:29868714,0.999205757185081
Ca3:29909008,0.999205757185081
Ca3:29946381,0.999205757185081
Ca3:29973731,0.999205757185081
Ca3:3014217,0.999205757185081
Ca3:30184982,0.999205757185081
Ca3:31689128,0.999205757185081
Ca3:31947503,0.999205757185081
Ca3:32361555,0.999205757185081
Ca3:34260881,0.999205757185081
Ca3:34422781,0.999205757185081
Ca3:35971296,0.999205757185081
Ca3:36002733,0.999205757185081
Ca3:36060743,0.999205757185081
Ca3:36113527,0.999205757185081
Ca3:36114817,0.999205757185081
Ca3:36121691,0.999205757185081
Ca3:36132729,0.999205757185081
Ca3:36133407,0.999205757185081
Ca3:36267769,0.999205757185081
Ca3:36269671,0.999205757185081
Ca3:36361339,0.999205757185081
Ca3:36361380,0.999205757185081
Ca3:36361395,0.999205757185081
Ca3:36366551,0.999205757185081
Ca3:36379946,0.999205757185081
Ca3:36379969,0.999205757185081
Ca3:36407687,0.999205757185081
Ca3:36449769,0.999205757185081
Ca3:36686242,0.999205757185081
Ca3:36766357,0.999205757185081
Ca3:36772002,0.999205757185081
Ca3:36783494,0.999205757185081
Ca3:36815538,0.999205757185081
Ca3:36876334,0.999205757185081
Ca3:36876361,0.999205757185081
Ca3:36894852,0.999205757185081
Ca3:36895362,0.999205757185081
Ca3:36913219,0.999205757185081
Ca3:36913289,0.999205757185081
Ca3:36917594,0.999205757185081
Ca3:36917596,0.999205757185081
Ca3:36996045,0.999205757185081
Ca3:37062123,0.999205757185081
Ca3:3728574,0.999205757185081
Ca3:38137506,0.999205757185081
Ca3:38162642,0.999205757185081
Ca3:38239132,0.999205757185081
Ca3:38629643,0.999205757185081
Ca3:3945862,0.999205757185081
Ca3:4122618,0.999205757185081
Ca3:6702038,0.999205757185081
Ca3:7737370,0.999205757185081
Ca3:7737420,0.999205757185081
Ca3:8664382,0.999205757185081
Ca4:11217413,0.999205757185081
Ca4:11297279,0.999205757185081
Ca4:11437261,0.999205757185081
Ca4:11489965,0.999205757185081
Ca4:12442512,0.999205757185081
Ca4:1394730,0.999205757185081
Ca4:14855287,0.999205757185081
Ca4:14880273,0.999205757185081
Ca4:15418625,0.999205757185081
Ca4:15418632,0.999205757185081
Ca4:15446877,0.999205757185081
Ca4:15473948,0.999205757185081
Ca4:15482744,0.999205757185081
Ca4:15482770,0.999205757185081
Ca4:15482791,0.999205757185081
Ca4:15482795,0.999205757185081
Ca4:15547293,0.999205757185081
Ca4:15552818,0.999205757185081
Ca4:15615765,0.999205757185081
Ca4:15664827,0.999205757185081
Ca4:15725312,0.999205757185081
Ca4:15790835,0.999205757185081
Ca4:15930674,0.999205757185081
Ca4:16181470,0.999205757185081
Ca4:16284657,0.999205757185081
Ca4:16299510,0.999205757185081
Ca4:16453933,0.999205757185081
Ca4:16536386,0.999205757185081
Ca4:16566729,0.999205757185081
Ca4:16620484,0.999205757185081
Ca4:16993406,0.999205757185081
Ca4:17089539,0.999205757185081
Ca4:17429742,0.999205757185081
Ca4:17677474,0.999205757185081
Ca4:17829807,0.999205757185081
Ca4:17939320,0.999205757185081
Ca4:18450051,0.999205757185081
Ca4:18807389,0.999205757185081
Ca4:19071949,0.999205757185081
Ca4:20257135,0.999205757185081
Ca4:22091738,0.999205757185081
Ca4:22743247,0.999205757185081
Ca4:22760219,0.999205757185081
Ca4:22801260,0.999205757185081
Ca4:22818105,0.999205757185081
Ca4:22863812,0.999205757185081
Ca4:22863813,0.999205757185081
Ca4:22897531,0.999205757185081
Ca4:22950293,0.999205757185081
Ca4:22956729,0.999205757185081
Ca4:22959956,0.999205757185081
Ca4:23027175,0.999205757185081
Ca4:23033216,0.999205757185081
Ca4:23044820,0.999205757185081
Ca4:23044850,0.999205757185081
Ca4:23047130,0.999205757185081
Ca4:23047162,0.999205757185081
Ca4:23047199,0.999205757185081
Ca4:23049531,0.999205757185081
Ca4:23064524,0.999205757185081
Ca4:23064528,0.999205757185081
Ca4:23099660,0.999205757185081
Ca4:23099663,0.999205757185081
Ca4:23122042,0.999205757185081
Ca4:24951590,0.999205757185081
Ca4:25393974,0.999205757185081
Ca4:25394627,0.999205757185081
Ca4:25394657,0.999205757185081
Ca4:25394658,0.999205757185081
Ca4:25461812,0.999205757185081
Ca4:25773761,0.999205757185081
Ca4:25835378,0.999205757185081
Ca4:26001192,0.999205757185081
Ca4:26261398,0.999205757185081
Ca4:26618282,0.999205757185081
Ca4:27377850,0.999205757185081
Ca4:27401555,0.999205757185081
Ca4:28145170,0.999205757185081
Ca4:28182532,0.999205757185081
Ca4:28182534,0.999205757185081
Ca4:28316972,0.999205757185081
Ca4:28990881,0.999205757185081
Ca4:29011947,0.999205757185081
Ca4:29011956,0.999205757185081
Ca4:29011962,0.999205757185081
Ca4:29011965,0.999205757185081
Ca4:29033889,0.999205757185081
Ca4:29033909,0.999205757185081
Ca4:29092572,0.999205757185081
Ca4:29175618,0.999205757185081
Ca4:29269004,0.999205757185081
Ca4:29281022,0.999205757185081
Ca4:29307236,0.999205757185081
Ca4:29323218,0.999205757185081
Ca4:29323233,0.999205757185081
Ca4:29325458,0.999205757185081
Ca4:29357680,0.999205757185081
Ca4:29382030,0.999205757185081
Ca4:29593548,0.999205757185081
Ca4:29625418,0.999205757185081
Ca4:29625419,0.999205757185081
Ca4:29625433,0.999205757185081
Ca4:29704177,0.999205757185081
Ca4:29715329,0.999205757185081
Ca4:29822983,0.999205757185081
Ca4:29824473,0.999205757185081
Ca4:29824605,0.999205757185081
Ca4:29865505,0.999205757185081
Ca4:29865559,0.999205757185081
Ca4:29872986,0.999205757185081
Ca4:29915233,0.999205757185081
Ca4:29921878,0.999205757185081
Ca4:29921884,0.999205757185081
Ca4:29921889,0.999205757185081
Ca4:29921903,0.999205757185081
Ca4:29975567,0.999205757185081
Ca4:29985381,0.999205757185081
Ca4:30010695,0.999205757185081
Ca4:30010700,0.999205757185081
Ca4:30010703,0.999205757185081
Ca4:30098153,0.999205757185081
Ca4:30100120,0.999205757185081
Ca4:30145720,0.999205757185081
Ca4:30203172,0.999205757185081
Ca4:30203202,0.999205757185081
Ca4:30203216,0.999205757185081
Ca4:30228263,0.999205757185081
Ca4:30233037,0.999205757185081
Ca4:30233064,0.999205757185081
Ca4:30273990,0.999205757185081
Ca4:30273992,0.999205757185081
Ca4:30274000,0.999205757185081
Ca4:30277069,0.999205757185081
Ca4:30296546,0.999205757185081
Ca4:30314429,0.999205757185081
Ca4:30315118,0.999205757185081
Ca4:30336868,0.999205757185081
Ca4:30401971,0.999205757185081
Ca4:30402068,0.999205757185081
Ca4:30414130,0.999205757185081
Ca4:30414148,0.999205757185081
Ca4:30425327,0.999205757185081
Ca4:30425331,0.999205757185081
Ca4:30426290,0.999205757185081
Ca4:30426534,0.999205757185081
Ca4:30426541,0.999205757185081
Ca4:30453872,0.999205757185081
Ca4:30466643,0.999205757185081
Ca4:30608189,0.999205757185081
Ca4:30692236,0.999205757185081
Ca4:30707253,0.999205757185081
Ca4:30715006,0.999205757185081
Ca4:30715042,0.999205757185081
Ca4:30869364,0.999205757185081
Ca4:30869384,0.999205757185081
Ca4:30869396,0.999205757185081
Ca4:30948593,0.999205757185081
Ca4:31025625,0.999205757185081
Ca4:31114886,0.999205757185081
Ca4:31140379,0.999205757185081
Ca4:31295098,0.999205757185081
Ca4:31307710,0.999205757185081
Ca4:31310655,0.999205757185081
Ca4:31310675,0.999205757185081
Ca4:31334235,0.999205757185081
Ca4:31351092,0.999205757185081
Ca4:31737913,0.999205757185081
Ca4:31825381,0.999205757185081
Ca4:31965561,0.999205757185081
Ca4:31965571,0.999205757185081
Ca4:31979175,0.999205757185081
Ca4:31979222,0.999205757185081
Ca4:31979798,0.999205757185081
Ca4:31979828,0.999205757185081
Ca4:3214214,0.999205757185081
Ca4:32403613,0.999205757185081
Ca4:32403651,0.999205757185081
Ca4:32551441,0.999205757185081
Ca4:32552818,0.999205757185081
Ca4:32567431,0.999205757185081
Ca4:32656623,0.999205757185081
Ca4:3274504,0.999205757185081
Ca4:3293782,0.999205757185081
Ca4:32996958,0.999205757185081
Ca4:3321613,0.999205757185081
Ca4:3321643,0.999205757185081
Ca4:3321659,0.999205757185081
Ca4:33329152,0.999205757185081
Ca4:33803088,0.999205757185081
Ca4:34411840,0.999205757185081
Ca4:34493312,0.999205757185081
Ca4:35301804,0.999205757185081
Ca4:35437325,0.999205757185081
Ca4:35582790,0.999205757185081
Ca4:35583396,0.999205757185081
Ca4:3573324,0.999205757185081
Ca4:36113022,0.999205757185081
Ca4:36267373,0.999205757185081
Ca4:36461836,0.999205757185081
Ca4:36486344,0.999205757185081
Ca4:36516341,0.999205757185081
Ca4:36516363,0.999205757185081
Ca4:36803722,0.999205757185081
Ca4:36804548,0.999205757185081
Ca4:36812293,0.999205757185081
Ca4:36812332,0.999205757185081
Ca4:36812352,0.999205757185081
Ca4:36813406,0.999205757185081
Ca4:36813445,0.999205757185081
Ca4:36813446,0.999205757185081
Ca4:36921906,0.999205757185081
Ca4:36925671,0.999205757185081
Ca4:36928724,0.999205757185081
Ca4:36951922,0.999205757185081
Ca4:36953728,0.999205757185081
Ca4:37009044,0.999205757185081
Ca4:37009062,0.999205757185081
Ca4:37011947,0.999205757185081
Ca4:37047364,0.999205757185081
Ca4:37076932,0.999205757185081
Ca4:37184618,0.999205757185081
Ca4:37224072,0.999205757185081
Ca4:37229598,0.999205757185081
Ca4:37300518,0.999205757185081
Ca4:37420090,0.999205757185081
Ca4:37420097,0.999205757185081
Ca4:37420162,0.999205757185081
Ca4:37453274,0.999205757185081
Ca4:37578196,0.999205757185081
Ca4:37634347,0.999205757185081
Ca4:37679463,0.999205757185081
Ca4:37720860,0.999205757185081
Ca4:37852272,0.999205757185081
Ca4:37852284,0.999205757185081
Ca4:37852321,0.999205757185081
Ca4:37852323,0.999205757185081
Ca4:37901750,0.999205757185081
Ca4:37901751,0.999205757185081
Ca4:37990248,0.999205757185081
Ca4:38008227,0.999205757185081
Ca4:38008254,0.999205757185081
Ca4:38186887,0.999205757185081
Ca4:38203260,0.999205757185081
Ca4:38206598,0.999205757185081
Ca4:38233497,0.999205757185081
Ca4:38233536,0.999205757185081
Ca4:38289052,0.999205757185081
Ca4:38289066,0.999205757185081
Ca4:38290817,0.999205757185081
Ca4:38290832,0.999205757185081
Ca4:38298356,0.999205757185081
Ca4:38301762,0.999205757185081
Ca4:38301780,0.999205757185081
Ca4:38306394,0.999205757185081
Ca4:38341230,0.999205757185081
Ca4:38361913,0.999205757185081
Ca4:38426254,0.999205757185081
Ca4:38534421,0.999205757185081
Ca4:38554317,0.999205757185081
Ca4:38580546,0.999205757185081
Ca4:38580554,0.999205757185081
Ca4:38580586,0.999205757185081
Ca4:38581016,0.999205757185081
Ca4:38581192,0.999205757185081
Ca4:38591285,0.999205757185081
Ca4:38619056,0.999205757185081
Ca4:38625309,0.999205757185081
Ca4:38625368,0.999205757185081
Ca4:38687034,0.999205757185081
Ca4:38726564,0.999205757185081
Ca4:38735232,0.999205757185081
Ca4:38760498,0.999205757185081
Ca4:38844815,0.999205757185081
Ca4:38844816,0.999205757185081
Ca4:38846435,0.999205757185081
Ca4:38846476,0.999205757185081
Ca4:38887996,0.999205757185081
Ca4:38888005,0.999205757185081
Ca4:38896258,0.999205757185081
Ca4:38976785,0.999205757185081
Ca4:38976822,0.999205757185081
Ca4:38976835,0.999205757185081
Ca4:39033435,0.999205757185081
Ca4:39035947,0.999205757185081
Ca4:39049036,0.999205757185081
Ca4:39059760,0.999205757185081
Ca4:39080797,0.999205757185081
Ca4:39080835,0.999205757185081
Ca4:39091735,0.999205757185081
Ca4:39149491,0.999205757185081
Ca4:39151383,0.999205757185081
Ca4:39181724,0.999205757185081
Ca4:39183634,0.999205757185081
Ca4:39183647,0.999205757185081
Ca4:39201438,0.999205757185081
Ca4:39201452,0.999205757185081
Ca4:39305010,0.999205757185081
Ca4:39333428,0.999205757185081
Ca4:39333432,0.999205757185081
Ca4:39333437,0.999205757185081
Ca4:39333439,0.999205757185081
Ca4:39706384,0.999205757185081
Ca4:39713388,0.999205757185081
Ca4:39746549,0.999205757185081
Ca4:39746569,0.999205757185081
Ca4:39746573,0.999205757185081
Ca4:39769849,0.999205757185081
Ca4:39780626,0.999205757185081
Ca4:39787174,0.999205757185081
Ca4:39800749,0.999205757185081
Ca4:39835873,0.999205757185081
Ca4:39934540,0.999205757185081
Ca4:39942339,0.999205757185081
Ca4:39942402,0.999205757185081
Ca4:40081257,0.999205757185081
Ca4:40081267,0.999205757185081
Ca4:40255718,0.999205757185081
Ca4:40255731,0.999205757185081
Ca4:40389653,0.999205757185081
Ca4:40492358,0.999205757185081
Ca4:40492382,0.999205757185081
Ca4:40557416,0.999205757185081
Ca4:40590591,0.999205757185081
Ca4:40590703,0.999205757185081
Ca4:40590714,0.999205757185081
Ca4:40757508,0.999205757185081
Ca4:40784256,0.999205757185081
Ca4:40896965,0.999205757185081
Ca4:40918768,0.999205757185081
Ca4:40964173,0.999205757185081
Ca4:40964189,0.999205757185081
Ca4:40999191,0.999205757185081
Ca4:41013124,0.999205757185081
Ca4:41020377,0.999205757185081
Ca4:41027407,0.999205757185081
Ca4:41027413,0.999205757185081
Ca4:41038977,0.999205757185081
Ca4:41045113,0.999205757185081
Ca4:41107171,0.999205757185081
Ca4:4244918,0.999205757185081
Ca4:42730349,0.999205757185081
Ca4:4306942,0.999205757185081
Ca4:4306943,0.999205757185081
Ca4:43285489,0.999205757185081
Ca4:43320018,0.999205757185081
Ca4:4332564,0.999205757185081
Ca4:43460098,0.999205757185081
Ca4:43487613,0.999205757185081
Ca4:4396218,0.999205757185081
Ca4:4396253,0.999205757185081
Ca4:44016769,0.999205757185081
Ca4:44016783,0.999205757185081
Ca4:44173305,0.999205757185081
Ca4:44381094,0.999205757185081
Ca4:44381112,0.999205757185081
Ca4:44381126,0.999205757185081
Ca4:44401197,0.999205757185081
Ca4:44401201,0.999205757185081
Ca4:44422051,0.999205757185081
Ca4:44611199,0.999205757185081
Ca4:44611219,0.999205757185081
Ca4:44785477,0.999205757185081
Ca4:44791046,0.999205757185081
Ca4:44798862,0.999205757185081
Ca4:44855920,0.999205757185081
Ca4:44855968,0.999205757185081
Ca4:44905844,0.999205757185081
Ca4:44905869,0.999205757185081
Ca4:44917890,0.999205757185081
Ca4:44945463,0.999205757185081
Ca4:45109519,0.999205757185081
Ca4:45111471,0.999205757185081
Ca4:45157000,0.999205757185081
Ca4:45158796,0.999205757185081
Ca4:45165327,0.999205757185081
Ca4:45247177,0.999205757185081
Ca4:45279572,0.999205757185081
Ca4:45321283,0.999205757185081
Ca4:45376865,0.999205757185081
Ca4:45725643,0.999205757185081
Ca4:46717508,0.999205757185081
Ca4:46731155,0.999205757185081
Ca4:4679255,0.999205757185081
Ca4:4680728,0.999205757185081
Ca4:47190428,0.999205757185081
Ca4:47215125,0.999205757185081
Ca4:47215127,0.999205757185081
Ca4:47215153,0.999205757185081
Ca4:47217431,0.999205757185081
Ca4:47219381,0.999205757185081
Ca4:47287458,0.999205757185081
Ca4:47893748,0.999205757185081
Ca4:48098843,0.999205757185081
Ca4:48231834,0.999205757185081
Ca4:48295665,0.999205757185081
Ca4:48310984,0.999205757185081
Ca4:48401321,0.999205757185081
Ca4:48503935,0.999205757185081
Ca4:48519187,0.999205757185081
Ca4:48592399,0.999205757185081
Ca4:48677033,0.999205757185081
Ca4:48717120,0.999205757185081
Ca4:48801545,0.999205757185081
Ca4:48998832,0.999205757185081
Ca4:5073317,0.999205757185081
Ca4:6024498,0.999205757185081
Ca4:6398705,0.999205757185081
Ca4:7268780,0.999205757185081
Ca4:7280380,0.999205757185081
Ca4:7310206,0.999205757185081
Ca4:7344984,0.999205757185081
Ca4:7367645,0.999205757185081
Ca4:7369471,0.999205757185081
Ca4:8468991,0.999205757185081
Ca4:8479467,0.999205757185081
Ca4:8479518,0.999205757185081
Ca4:8479545,0.999205757185081
Ca4:8667102,0.999205757185081
Ca4:8667109,0.999205757185081
Ca4:8667121,0.999205757185081
Ca4:8667126,0.999205757185081
Ca4:8699718,0.999205757185081
Ca4:8742518,0.999205757185081
Ca4:8753091,0.999205757185081
Ca4:8755622,0.999205757185081
Ca4:8852303,0.999205757185081
Ca4:8980836,0.999205757185081
Ca5:11884676,0.999205757185081
Ca5:12253018,0.999205757185081
Ca5:13704302,0.999205757185081
Ca5:15870820,0.999205757185081
Ca5:16515520,0.999205757185081
Ca5:17224286,0.999205757185081
Ca5:18266317,0.999205757185081
Ca5:189834,0.999205757185081
Ca5:20367920,0.999205757185081
Ca5:208087,0.999205757185081
Ca5:20853333,0.999205757185081
Ca5:21382177,0.999205757185081
Ca5:21997614,0.999205757185081
Ca5:22093314,0.999205757185081
Ca5:23373154,0.999205757185081
Ca5:23472732,0.999205757185081
Ca5:23891945,0.999205757185081
Ca5:24488052,0.999205757185081
Ca5:24904659,0.999205757185081
Ca5:25365083,0.999205757185081
Ca5:26077864,0.999205757185081
Ca5:26103092,0.999205757185081
Ca5:27126764,0.999205757185081
Ca5:27585169,0.999205757185081
Ca5:28040344,0.999205757185081
Ca5:28047653,0.999205757185081
Ca5:28120000,0.999205757185081
Ca5:28120049,0.999205757185081
Ca5:29080060,0.999205757185081
Ca5:29562798,0.999205757185081
Ca5:30453603,0.999205757185081
Ca5:30662807,0.999205757185081
Ca5:32648978,0.999205757185081
Ca5:32649011,0.999205757185081
Ca5:33836723,0.999205757185081
Ca5:33910486,0.999205757185081
Ca5:3503540,0.999205757185081
Ca5:35704254,0.999205757185081
Ca5:36525529,0.999205757185081
Ca5:36538079,0.999205757185081
Ca5:36686757,0.999205757185081
Ca5:38015453,0.999205757185081
Ca5:38345955,0.999205757185081
Ca5:39720969,0.999205757185081
Ca5:44528748,0.999205757185081
Ca5:44533335,0.999205757185081
Ca5:44575414,0.999205757185081
Ca5:44751800,0.999205757185081
Ca5:44765816,0.999205757185081
Ca5:44765828,0.999205757185081
Ca5:46038220,0.999205757185081
Ca5:47387141,0.999205757185081
Ca5:47613783,0.999205757185081
Ca5:5461950,0.999205757185081
Ca5:6249362,0.999205757185081
Ca5:7292272,0.999205757185081
Ca5:7614861,0.999205757185081
Ca5:7914460,0.999205757185081
Ca6:10322362,0.999205757185081
Ca6:10613546,0.999205757185081
Ca6:10728455,0.999205757185081
Ca6:10769008,0.999205757185081
Ca6:10847192,0.999205757185081
Ca6:10900225,0.999205757185081
Ca6:10902234,0.999205757185081
Ca6:11467763,0.999205757185081
Ca6:11658375,0.999205757185081
Ca6:11673053,0.999205757185081
Ca6:12635696,0.999205757185081
Ca6:13346715,0.999205757185081
Ca6:13402865,0.999205757185081
Ca6:13402884,0.999205757185081
Ca6:13402920,0.999205757185081
Ca6:13643158,0.999205757185081
Ca6:13666171,0.999205757185081
Ca6:14298851,0.999205757185081
Ca6:14373490,0.999205757185081
Ca6:14407227,0.999205757185081
Ca6:14407232,0.999205757185081
Ca6:14424619,0.999205757185081
Ca6:14528916,0.999205757185081
Ca6:14535344,0.999205757185081
Ca6:14590770,0.999205757185081
Ca6:14592230,0.999205757185081
Ca6:14608687,0.999205757185081
Ca6:14714786,0.999205757185081
Ca6:15283408,0.999205757185081
Ca6:15660464,0.999205757185081
Ca6:17977547,0.999205757185081
Ca6:1841806,0.999205757185081
Ca6:1841818,0.999205757185081
Ca6:1849005,0.999205757185081
Ca6:18754429,0.999205757185081
Ca6:1877748,0.999205757185081
Ca6:18802099,0.999205757185081
Ca6:1886917,0.999205757185081
Ca6:1893420,0.999205757185081
Ca6:1893470,0.999205757185081
Ca6:1894462,0.999205757185081
Ca6:1991541,0.999205757185081
Ca6:2009467,0.999205757185081
Ca6:2032632,0.999205757185081
Ca6:2105286,0.999205757185081
Ca6:2106542,0.999205757185081
Ca6:2137352,0.999205757185081
Ca6:21466753,0.999205757185081
Ca6:2150024,0.999205757185081
Ca6:21802229,0.999205757185081
Ca6:21802305,0.999205757185081
Ca6:21802318,0.999205757185081
Ca6:21802325,0.999205757185081
Ca6:2183277,0.999205757185081
Ca6:2196769,0.999205757185081
Ca6:2210710,0.999205757185081
Ca6:2227188,0.999205757185081
Ca6:22413521,0.999205757185081
Ca6:2334538,0.999205757185081
Ca6:23698365,0.999205757185081
Ca6:2377222,0.999205757185081
Ca6:23940777,0.999205757185081
Ca6:24481034,0.999205757185081
Ca6:24499856,0.999205757185081
Ca6:24777978,0.999205757185081
Ca6:25080057,0.999205757185081
Ca6:2541669,0.999205757185081
Ca6:2593263,0.999205757185081
Ca6:26354046,0.999205757185081
Ca6:26364926,0.999205757185081
Ca6:26457574,0.999205757185081
Ca6:26457601,0.999205757185081
Ca6:26469783,0.999205757185081
Ca6:26534881,0.999205757185081
Ca6:26534883,0.999205757185081
Ca6:2699254,0.999205757185081
Ca6:2702698,0.999205757185081
Ca6:2837419,0.999205757185081
Ca6:2908823,0.999205757185081
Ca6:2944085,0.999205757185081
Ca6:2971959,0.999205757185081
Ca6:3018220,0.999205757185081
Ca6:3024334,0.999205757185081
Ca6:3024335,0.999205757185081
Ca6:31808827,0.999205757185081
Ca6:35144053,0.999205757185081
Ca6:35498897,0.999205757185081
Ca6:38701935,0.999205757185081
Ca6:38979014,0.999205757185081
Ca6:39147037,0.999205757185081
Ca6:39839778,0.999205757185081
Ca6:42216062,0.999205757185081
Ca6:45076732,0.999205757185081
Ca6:45326704,0.999205757185081
Ca6:45917082,0.999205757185081
Ca6:472064,0.999205757185081
Ca6:47657340,0.999205757185081
Ca6:48295748,0.999205757185081
Ca6:49091425,0.999205757185081
Ca6:49550444,0.999205757185081
Ca6:49572010,0.999205757185081
Ca6:49711228,0.999205757185081
Ca6:50757057,0.999205757185081
Ca6:5226685,0.999205757185081
Ca6:52918228,0.999205757185081
Ca6:52946324,0.999205757185081
Ca6:53310648,0.999205757185081
Ca6:55567216,0.999205757185081
Ca6:56158213,0.999205757185081
Ca6:56568242,0.999205757185081
Ca6:56795343,0.999205757185081
Ca6:56795373,0.999205757185081
Ca6:56861185,0.999205757185081
Ca6:56975641,0.999205757185081
Ca6:56975647,0.999205757185081
Ca6:57046107,0.999205757185081
Ca6:57046110,0.999205757185081
Ca6:57114094,0.999205757185081
Ca6:57117312,0.999205757185081
Ca6:57130704,0.999205757185081
Ca6:57158047,0.999205757185081
Ca6:57708760,0.999205757185081
Ca6:57722953,0.999205757185081
Ca6:57749229,0.999205757185081
Ca6:57878448,0.999205757185081
Ca6:57940068,0.999205757185081
Ca6:57946820,0.999205757185081
Ca6:58006159,0.999205757185081
Ca6:58008759,0.999205757185081
Ca6:58100441,0.999205757185081
Ca6:58100449,0.999205757185081
Ca6:58103358,0.999205757185081
Ca6:58107026,0.999205757185081
Ca6:58107041,0.999205757185081
Ca6:58138157,0.999205757185081
Ca6:58142804,0.999205757185081
Ca6:58142828,0.999205757185081
Ca6:58142853,0.999205757185081
Ca6:58159364,0.999205757185081
Ca6:59084865,0.999205757185081
Ca6:59115549,0.999205757185081
Ca6:59191493,0.999205757185081
Ca6:59191497,0.999205757185081
Ca6:59217199,0.999205757185081
Ca6:59342607,0.999205757185081
Ca6:7551865,0.999205757185081
Ca6:7606375,0.999205757185081
Ca6:7607616,0.999205757185081
Ca6:7727898,0.999205757185081
Ca6:7815266,0.999205757185081
Ca6:7815267,0.999205757185081
Ca6:7819348,0.999205757185081
Ca6:7872977,0.999205757185081
Ca6:7872984,0.999205757185081
Ca6:7895806,0.999205757185081
Ca6:7917306,0.999205757185081
Ca6:7917326,0.999205757185081
Ca6:7917334,0.999205757185081
Ca6:7983644,0.999205757185081
Ca6:7983663,0.999205757185081
Ca6:8080857,0.999205757185081
Ca6:8080860,0.999205757185081
Ca6:8089606,0.999205757185081
Ca6:8096871,0.999205757185081
Ca6:8132845,0.999205757185081
Ca6:8175857,0.999205757185081
Ca6:8354929,0.999205757185081
Ca6:8698418,0.999205757185081
Ca6:8894185,0.999205757185081
Ca6:9847419,0.999205757185081
Ca6:9847422,0.999205757185081
Ca7:10293939,0.999205757185081
Ca7:10366935,0.999205757185081
Ca7:13997813,0.999205757185081
Ca7:14050887,0.999205757185081
Ca7:14470549,0.999205757185081
Ca7:14632310,0.999205757185081
Ca7:15028400,0.999205757185081
Ca7:15450815,0.999205757185081
Ca7:15627151,0.999205757185081
Ca7:15929893,0.999205757185081
Ca7:16016677,0.999205757185081
Ca7:16291432,0.999205757185081
Ca7:16648025,0.999205757185081
Ca7:19377547,0.999205757185081
Ca7:19404658,0.999205757185081
Ca7:20285563,0.999205757185081
Ca7:20293736,0.999205757185081
Ca7:20527694,0.999205757185081
Ca7:20555103,0.999205757185081
Ca7:21005375,0.999205757185081
Ca7:21340140,0.999205757185081
Ca7:23467920,0.999205757185081
Ca7:23947201,0.999205757185081
Ca7:24199806,0.999205757185081
Ca7:24378702,0.999205757185081
Ca7:25158913,0.999205757185081
Ca7:25876585,0.999205757185081
Ca7:26769167,0.999205757185081
Ca7:27168853,0.999205757185081
Ca7:27212874,0.999205757185081
Ca7:27358570,0.999205757185081
Ca7:28323229,0.999205757185081
Ca7:29578517,0.999205757185081
Ca7:30089514,0.999205757185081
Ca7:30089515,0.999205757185081
Ca7:30089569,0.999205757185081
Ca7:30089579,0.999205757185081
Ca7:30115297,0.999205757185081
Ca7:30202177,0.999205757185081
Ca7:31193917,0.999205757185081
Ca7:31203988,0.999205757185081
Ca7:31440032,0.999205757185081
Ca7:32238730,0.999205757185081
Ca7:32251654,0.999205757185081
Ca7:32251681,0.999205757185081
Ca7:32251689,0.999205757185081
Ca7:32305663,0.999205757185081
Ca7:32375957,0.999205757185081
Ca7:33107863,0.999205757185081
Ca7:33256360,0.999205757185081
Ca7:33340372,0.999205757185081
Ca7:33369928,0.999205757185081
Ca7:33369962,0.999205757185081
Ca7:33457287,0.999205757185081
Ca7:33558589,0.999205757185081
Ca7:33704600,0.999205757185081
Ca7:33725695,0.999205757185081
Ca7:33725696,0.999205757185081
Ca7:33796835,0.999205757185081
Ca7:33822239,0.999205757185081
Ca7:34135750,0.999205757185081
Ca7:34175928,0.999205757185081
Ca7:34181376,0.999205757185081
Ca7:34209989,0.999205757185081
Ca7:34219315,0.999205757185081
Ca7:34228751,0.999205757185081
Ca7:34235815,0.999205757185081
Ca7:34256144,0.999205757185081
Ca7:34277102,0.999205757185081
Ca7:3431242,0.999205757185081
Ca7:34321578,0.999205757185081
Ca7:34365720,0.999205757185081
Ca7:3458856,0.999205757185081
Ca7:3509967,0.999205757185081
Ca7:3509969,0.999205757185081
Ca7:35114126,0.999205757185081
Ca7:35115395,0.999205757185081
Ca7:35115436,0.999205757185081
Ca7:35172009,0.999205757185081
Ca7:35172023,0.999205757185081
Ca7:3524762,0.999205757185081
Ca7:35249582,0.999205757185081
Ca7:35255674,0.999205757185081
Ca7:35255676,0.999205757185081
Ca7:35255679,0.999205757185081
Ca7:35282831,0.999205757185081
Ca7:35731203,0.999205757185081
Ca7:35864220,0.999205757185081
Ca7:3593837,0.999205757185081
Ca7:3600987,0.999205757185081
Ca7:3629987,0.999205757185081
Ca7:3630219,0.999205757185081
Ca7:3635762,0.999205757185081
Ca7:3655202,0.999205757185081
Ca7:3655225,0.999205757185081
Ca7:36708736,0.999205757185081
Ca7:3778002,0.999205757185081
Ca7:38775034,0.999205757185081
Ca7:39352165,0.999205757185081
Ca7:402536,0.999205757185081
Ca7:40662543,0.999205757185081
Ca7:41341791,0.999205757185081
Ca7:41540186,0.999205757185081
Ca7:41892029,0.999205757185081
Ca7:42084987,0.999205757185081
Ca7:42979359,0.999205757185081
Ca7:43562678,0.999205757185081
Ca7:43853469,0.999205757185081
Ca7:44070483,0.999205757185081
Ca7:44171877,0.999205757185081
Ca7:44947664,0.999205757185081
Ca7:46230644,0.999205757185081
Ca7:46355699,0.999205757185081
Ca7:46399707,0.999205757185081
Ca7:48387527,0.999205757185081
Ca7:4971577,0.999205757185081
Ca7:5548892,0.999205757185081
Ca7:5548905,0.999205757185081
Ca7:5559110,0.999205757185081
Ca7:5713007,0.999205757185081
Ca7:5728003,0.999205757185081
Ca7:5782360,0.999205757185081
Ca7:5782593,0.999205757185081
Ca7:5811673,0.999205757185081
Ca7:5881027,0.999205757185081
Ca7:5908726,0.999205757185081
Ca7:6031161,0.999205757185081
Ca7:6031181,0.999205757185081
Ca7:6031187,0.999205757185081
Ca7:6038010,0.999205757185081
Ca7:6040910,0.999205757185081
Ca7:6040924,0.999205757185081
Ca7:6045262,0.999205757185081
Ca7:6045273,0.999205757185081
Ca7:6544920,0.999205757185081
Ca7:6544932,0.999205757185081
Ca7:6577565,0.999205757185081
Ca7:988495,0.999205757185081
Ca8:11213239,0.999205757185081
Ca8:11251550,0.999205757185081
Ca8:11383858,0.999205757185081
Ca8:11402259,0.999205757185081
Ca8:11611003,0.999205757185081
Ca8:11611012,0.999205757185081
Ca8:11616667,0.999205757185081
Ca8:11659801,0.999205757185081
Ca8:11732473,0.999205757185081
Ca8:12987628,0.999205757185081
Ca8:14107786,0.999205757185081
Ca8:14467549,0.999205757185081
Ca8:14471182,0.999205757185081
Ca8:14497891,0.999205757185081
Ca8:14726222,0.999205757185081
Ca8:15796272,0.999205757185081
Ca8:4238933,0.999205757185081
Ca8:4530592,0.999205757185081
Ca8:4602179,0.999205757185081
Ca8:5289479,0.999205757185081
Ca8:619959,0.999205757185081
Ca8:620018,0.999205757185081
Ca8:6943437,0.999205757185081
Ca8:766069,0.999205757185081
Ca8:8837143,0.999205757185081
Ca8:8837145,0.999205757185081
Ca8:8854375,0.999205757185081
Ca8:8855895,0.999205757185081
Ca8:8858378,0.999205757185081
Ca8:8858417,0.999205757185081
Ca8:8858449,0.999205757185081
Ca8:8934719,0.999205757185081
Ca8:9087442,0.999205757185081
Ca8:9098790,0.999205757185081
Ca8:9100293,0.999205757185081
Ca8:9156650,0.999205757185081
Ca8:9156656,0.999205757185081
Ca8:9156658,0.999205757185081
Ca8:9156798,0.999205757185081
Ca8:9169062,0.999205757185081
Ca8:9213247,0.999205757185081
Ca8:9213251,0.999205757185081
Ca8:9213272,0.999205757185081
Ca8:9213301,0.999205757185081
Ca8:9213312,0.999205757185081
C11176652:9039,0.999205757185081
C11178328:8674,0.999205757185081
scaffold1006:655320,0.999205757185081
scaffold1128:217493,0.999205757185081
scaffold1128:399869,0.999205757185081
scaffold1128:449553,0.999205757185081
scaffold118:289363,0.999205757185081
scaffold1180:166579,0.999205757185081
scaffold1180:169036,0.999205757185081
scaffold1183:209748,0.999205757185081
scaffold1238:32718,0.999205757185081
scaffold128:329376,0.999205757185081
scaffold1324:469162,0.999205757185081
scaffold134:9468,0.999205757185081
scaffold1448:146985,0.999205757185081
scaffold1466:147045,0.999205757185081
scaffold1466:147046,0.999205757185081
scaffold1466:321600,0.999205757185081
scaffold1467:147486,0.999205757185081
scaffold1467:76868,0.999205757185081
scaffold1475:96781,0.999205757185081
scaffold1496:112624,0.999205757185081
scaffold1499:13539,0.999205757185081
scaffold1506:74156,0.999205757185081
scaffold1508:107698,0.999205757185081
scaffold1511:154867,0.999205757185081
scaffold1532:44505,0.999205757185081
scaffold157:211790,0.999205757185081
scaffold157:211810,0.999205757185081
scaffold157:211831,0.999205757185081
scaffold157:213324,0.999205757185081
scaffold157:325857,0.999205757185081
scaffold157:51241,0.999205757185081
scaffold157:51242,0.999205757185081
scaffold1585:15658,0.999205757185081
scaffold1585:51085,0.999205757185081
scaffold1631:12731,0.999205757185081
scaffold1633:111616,0.999205757185081
scaffold1638:19965,0.999205757185081
scaffold1643:122234,0.999205757185081
scaffold1643:90699,0.999205757185081
scaffold1659:417870,0.999205757185081
scaffold1706:95931,0.999205757185081
scaffold1730:102990,0.999205757185081
scaffold174:177935,0.999205757185081
scaffold174:178551,0.999205757185081
scaffold174:203406,0.999205757185081
scaffold174:229185,0.999205757185081
scaffold174:377076,0.999205757185081
scaffold1866:77473,0.999205757185081
scaffold1878:34225,0.999205757185081
scaffold1943:364557,0.999205757185081
scaffold1962:117397,0.999205757185081
scaffold1981:399932,0.999205757185081
scaffold1984:6632,0.999205757185081
scaffold2033:169313,0.999205757185081
scaffold2039:96016,0.999205757185081
scaffold2040:99802,0.999205757185081
scaffold2051:230231,0.999205757185081
scaffold208:330860,0.999205757185081
scaffold210:165638,0.999205757185081
scaffold2152:349702,0.999205757185081
scaffold2179:90540,0.999205757185081
scaffold22:35171,0.999205757185081
scaffold22:35175,0.999205757185081
scaffold2348:95734,0.999205757185081
scaffold2392:28291,0.999205757185081
scaffold2392:47225,0.999205757185081
scaffold242:161669,0.999205757185081
scaffold242:402203,0.999205757185081
scaffold25:45962,0.999205757185081
scaffold250:49434,0.999205757185081
scaffold255:66438,0.999205757185081
scaffold275:537092,0.999205757185081
scaffold2763:11506,0.999205757185081
scaffold2763:116774,0.999205757185081
scaffold2763:159318,0.999205757185081
scaffold2763:84038,0.999205757185081
scaffold281:3736,0.999205757185081
scaffold281:3757,0.999205757185081
scaffold281:857,0.999205757185081
scaffold284:374025,0.999205757185081
scaffold2852:18455,0.999205757185081
scaffold290:323979,0.999205757185081
scaffold290:488120,0.999205757185081
scaffold290:633735,0.999205757185081
scaffold290:689700,0.999205757185081
scaffold290:701945,0.999205757185081
scaffold290:98642,0.999205757185081
scaffold296:249368,0.999205757185081
scaffold296:431036,0.999205757185081
scaffold298:66422,0.999205757185081
scaffold306:214984,0.999205757185081
scaffold306:424040,0.999205757185081
scaffold306:484270,0.999205757185081
scaffold306:65827,0.999205757185081
scaffold3217:4584,0.999205757185081
scaffold3217:4601,0.999205757185081
scaffold3254_2:9093,0.999205757185081
scaffold340:282586,0.999205757185081
scaffold349:259648,0.999205757185081
scaffold3542:42261,0.999205757185081
scaffold36:69363,0.999205757185081
scaffold3794:40613,0.999205757185081
scaffold3794:56580,0.999205757185081
scaffold38:186576,0.999205757185081
scaffold38:205747,0.999205757185081
scaffold38:269724,0.999205757185081
scaffold38:391524,0.999205757185081
scaffold396:58994,0.999205757185081
scaffold396:72765,0.999205757185081
scaffold397:191249,0.999205757185081
scaffold398:272411,0.999205757185081
scaffold398:350378,0.999205757185081
scaffold398:350391,0.999205757185081
scaffold398:443445,0.999205757185081
scaffold40:1061283,0.999205757185081
scaffold40:437123,0.999205757185081
scaffold40:856451,0.999205757185081
scaffold40:902418,0.999205757185081
scaffold40:910892,0.999205757185081
scaffold40:977113,0.999205757185081
scaffold40:977115,0.999205757185081
scaffold40:999206,0.999205757185081
scaffold4011:46174,0.999205757185081
scaffold404:205692,0.999205757185081
scaffold419:159649,0.999205757185081
scaffold420:236123,0.999205757185081
scaffold420:236167,0.999205757185081
scaffold420:290430,0.999205757185081
scaffold420:290547,0.999205757185081
scaffold420:312913,0.999205757185081
scaffold420:312920,0.999205757185081
scaffold420:312969,0.999205757185081
scaffold421_2:161698,0.999205757185081
scaffold423:6098,0.999205757185081
scaffold438:36119,0.999205757185081
scaffold44:200175,0.999205757185081
scaffold4643:18173,0.999205757185081
scaffold4643:64689,0.999205757185081
scaffold469:88875,0.999205757185081
scaffold4978:11523,0.999205757185081
scaffold498:176876,0.999205757185081
scaffold511:75266,0.999205757185081
scaffold528:193492,0.999205757185081
scaffold537:76943,0.999205757185081
scaffold545:86072,0.999205757185081
scaffold561:24426,0.999205757185081
scaffold598:212269,0.999205757185081
scaffold598:212270,0.999205757185081
scaffold598:410078,0.999205757185081
scaffold598:492219,0.999205757185081
scaffold598:536528,0.999205757185081
scaffold599:193380,0.999205757185081
scaffold626:86129,0.999205757185081
scaffold643:46947,0.999205757185081
scaffold661:497469,0.999205757185081
scaffold674:390812,0.999205757185081
scaffold674:428744,0.999205757185081
scaffold674:742515,0.999205757185081
scaffold678:77459,0.999205757185081
scaffold682:200624,0.999205757185081
scaffold692:3979,0.999205757185081
scaffold7007:2246,0.999205757185081
scaffold702:114532,0.999205757185081
scaffold702:78204,0.999205757185081
scaffold711:6970,0.999205757185081
scaffold716:291666,0.999205757185081
scaffold720:311084,0.999205757185081
scaffold721:81142,0.999205757185081
scaffold731:103081,0.999205757185081
scaffold7355:1317,0.999205757185081
scaffold7355:1319,0.999205757185081
scaffold752:446595,0.999205757185081
scaffold771:48951,0.999205757185081
scaffold794:124775,0.999205757185081
scaffold794:91902,0.999205757185081
scaffold801:187244,0.999205757185081
scaffold801:67115,0.999205757185081
scaffold809:83517,0.999205757185081
scaffold8196:3608,0.999205757185081
scaffold8196:3644,0.999205757185081
scaffold845:135024,0.999205757185081
scaffold845:22841,0.999205757185081
scaffold845:22853,0.999205757185081
scaffold845:35016,0.999205757185081
scaffold845:40589,0.999205757185081
scaffold845:55968,0.999205757185081
scaffold847:145576,0.999205757185081
scaffold847:41562,0.999205757185081
scaffold855:40619,0.999205757185081
scaffold864:161155,0.999205757185081
scaffold87:44246,0.999205757185081
scaffold875:20457,0.999205757185081
scaffold875:20475,0.999205757185081
scaffold875:32138,0.999205757185081
scaffold88:117792,0.999205757185081
scaffold88:257599,0.999205757185081
scaffold88:287327,0.999205757185081
scaffold882:159766,0.999205757185081
scaffold882:216409,0.999205757185081
scaffold919:361249,0.999205757185081
scaffold919:537787,0.999205757185081
scaffold922:153994,0.999205757185081
scaffold93:371223,0.999205757185081
scaffold98:166977,0.999205757185081
scaffold98:651285,0.999205757185081
Ca3:37143743,0.9994858572325799
